http://www2.census.gov/geo/tiger/TGRGDB13/tlgdb_2013_a_39_oh.gdb.zip 1 105824925 14.189923048
http://www2.census.gov/geo/tiger/TGRGDB13/tlgdb_2013_a_39_oh.gdb.zip 1 105824925 10.1193931103
http://www2.census.gov/geo/tiger/TGRGDB13/tlgdb_2013_a_39_oh.gdb.zip 1 105824925 6.59585809708
http://www2.census.gov/geo/tiger/TGRGDB13/tlgdb_2013_a_39_oh.gdb.zip 1 105824925 8.07577681541
http://www2.census.gov/geo/tiger/TGRGDB13/tlgdb_2013_a_39_oh.gdb.zip 1 105824925 7.32178902626
http://www2.census.gov/geo/tiger/TGRGDB13/tlgdb_2013_a_39_oh.gdb.zip 1 105824925 7.13551187515
http://www2.census.gov/geo/tiger/TGRGDB13/tlgdb_2013_a_39_oh.gdb.zip 1 105824925 4.30522084236
http://www2.census.gov/geo/tiger/TGRGDB13/tlgdb_2013_a_39_oh.gdb.zip 1 105824925 10.295566082
http://www2.census.gov/geo/tiger/TGRGDB13/tlgdb_2013_a_39_oh.gdb.zip 1 105824925 8.58027791977
http://www2.census.gov/geo/tiger/TGRGDB13/tlgdb_2013_a_39_oh.gdb.zip 1 105824925 9.20887994766
http://www2.census.gov/geo/tiger/TGRGDB13/tlgdb_2013_a_39_oh.gdb.zip 2 105824925 7.95727992058
http://www2.census.gov/geo/tiger/TGRGDB13/tlgdb_2013_a_39_oh.gdb.zip 2 105824925 3.57884192467
http://www2.census.gov/geo/tiger/TGRGDB13/tlgdb_2013_a_39_oh.gdb.zip 2 105824925 7.04406785965
http://www2.census.gov/geo/tiger/TGRGDB13/tlgdb_2013_a_39_oh.gdb.zip 2 105824925 6.08245801926
http://www2.census.gov/geo/tiger/TGRGDB13/tlgdb_2013_a_39_oh.gdb.zip 2 105824925 7.43154287338
http://www2.census.gov/geo/tiger/TGRGDB13/tlgdb_2013_a_39_oh.gdb.zip 2 105824925 7.0514588356
http://www2.census.gov/geo/tiger/TGRGDB13/tlgdb_2013_a_39_oh.gdb.zip 2 105824925 7.6172940731
http://www2.census.gov/geo/tiger/TGRGDB13/tlgdb_2013_a_39_oh.gdb.zip 2 105824925 7.12370300293
http://www2.census.gov/geo/tiger/TGRGDB13/tlgdb_2013_a_39_oh.gdb.zip 2 105824925 7.5204179287
http://www2.census.gov/geo/tiger/TGRGDB13/tlgdb_2013_a_39_oh.gdb.zip 2 105824925 5.44345808029
http://www2.census.gov/geo/tiger/TGRGDB13/tlgdb_2013_a_39_oh.gdb.zip 3 105824925 7.48417878151
http://www2.census.gov/geo/tiger/TGRGDB13/tlgdb_2013_a_39_oh.gdb.zip 3 105824925 6.65246915817
http://www2.census.gov/geo/tiger/TGRGDB13/tlgdb_2013_a_39_oh.gdb.zip 3 105824925 5.88690400124
http://www2.census.gov/geo/tiger/TGRGDB13/tlgdb_2013_a_39_oh.gdb.zip 3 105824925 5.01586604118
http://www2.census.gov/geo/tiger/TGRGDB13/tlgdb_2013_a_39_oh.gdb.zip 3 105824925 5.0871360302
http://www2.census.gov/geo/tiger/TGRGDB13/tlgdb_2013_a_39_oh.gdb.zip 3 105824925 3.69102096558
http://www2.census.gov/geo/tiger/TGRGDB13/tlgdb_2013_a_39_oh.gdb.zip 3 105824925 4.5534029007
http://www2.census.gov/geo/tiger/TGRGDB13/tlgdb_2013_a_39_oh.gdb.zip 3 105824925 6.5883769989
http://www2.census.gov/geo/tiger/TGRGDB13/tlgdb_2013_a_39_oh.gdb.zip 3 105824925 5.84910607338
http://www2.census.gov/geo/tiger/TGRGDB13/tlgdb_2013_a_39_oh.gdb.zip 3 105824925 7.21415400505
http://www2.census.gov/geo/tiger/TGRGDB13/tlgdb_2013_a_39_oh.gdb.zip 5 105824925 4.72069883347
http://www2.census.gov/geo/tiger/TGRGDB13/tlgdb_2013_a_39_oh.gdb.zip 5 105824925 3.15637683868
http://www2.census.gov/geo/tiger/TGRGDB13/tlgdb_2013_a_39_oh.gdb.zip 5 105824925 3.12430500984
http://www2.census.gov/geo/tiger/TGRGDB13/tlgdb_2013_a_39_oh.gdb.zip 5 105824925 3.19276285172
http://www2.census.gov/geo/tiger/TGRGDB13/tlgdb_2013_a_39_oh.gdb.zip 5 105824925 7.37033200264
http://www2.census.gov/geo/tiger/TGRGDB13/tlgdb_2013_a_39_oh.gdb.zip 5 105824925 5.33108496666
http://www2.census.gov/geo/tiger/TGRGDB13/tlgdb_2013_a_39_oh.gdb.zip 5 105824925 4.73853492737
http://www2.census.gov/geo/tiger/TGRGDB13/tlgdb_2013_a_39_oh.gdb.zip 5 105824925 6.73684096336
http://www2.census.gov/geo/tiger/TGRGDB13/tlgdb_2013_a_39_oh.gdb.zip 5 105824925 6.12817811966
http://www2.census.gov/geo/tiger/TGRGDB13/tlgdb_2013_a_39_oh.gdb.zip 5 105824925 3.29624700546
http://www2.census.gov/geo/tiger/TGRGDB13/tlgdb_2013_a_39_oh.gdb.zip 10 105824925 3.23362207413
http://www2.census.gov/geo/tiger/TGRGDB13/tlgdb_2013_a_39_oh.gdb.zip 10 105824925 5.22895503044
http://www2.census.gov/geo/tiger/TGRGDB13/tlgdb_2013_a_39_oh.gdb.zip 10 105824925 3.08576416969
http://www2.census.gov/geo/tiger/TGRGDB13/tlgdb_2013_a_39_oh.gdb.zip 10 105824925 7.24549484253
http://www2.census.gov/geo/tiger/TGRGDB13/tlgdb_2013_a_39_oh.gdb.zip 10 105824925 3.06807184219
http://www2.census.gov/geo/tiger/TGRGDB13/tlgdb_2013_a_39_oh.gdb.zip 10 105824925 3.140583992
http://www2.census.gov/geo/tiger/TGRGDB13/tlgdb_2013_a_39_oh.gdb.zip 10 105824925 6.85264110565
http://www2.census.gov/geo/tiger/TGRGDB13/tlgdb_2013_a_39_oh.gdb.zip 10 105824925 4.11579990387
http://www2.census.gov/geo/tiger/TGRGDB13/tlgdb_2013_a_39_oh.gdb.zip 10 105824925 4.27442598343
http://www2.census.gov/geo/tiger/TGRGDB13/tlgdb_2013_a_39_oh.gdb.zip 10 105824925 6.37274098396
