0 /file016.txt 200 OK 1286 0.001653
1 /file109.txt 200 OK 1628 0.001139
2 /file013.txt 200 OK 1063 0.002104
3 /file029.txt 200 OK 2454 0.002247
4 /file016.txt 200 OK 1286 0.002330
5 /file605.txt 200 OK 1410 0.001689
6 /file006.txt 200 OK 1188 0.001434
7 /file175.txt 200 OK 2182 0.002214
8 /file001.txt 200 OK 1477 0.001713
9 /file007.txt 200 OK 1138 0.001013
10 /file759.txt 200 OK 2281 0.000959
11 /file719.txt 200 OK 1497 0.001267
12 /file476.txt 200 OK 1027 0.001318
13 /file001.txt 200 OK 1477 0.001300
14 /file000.txt 200 OK 1389 0.001990
15 /file010.txt 200 OK 1423 0.001322
16 /file038.txt 200 OK 1627 0.000747
17 /file304.txt 200 OK 2204 0.002441
18 /file002.txt 200 OK 1056 0.003424
19 /file065.txt 200 OK 1056 0.004352
20 /file000.txt 200 OK 1389 0.001372
21 /file789.txt 200 OK 2017 0.001873
22 /file120.txt 200 OK 2801 0.001385
23 /file024.txt 200 OK 1255 0.001073
24 /file046.txt 200 OK 2334 0.001881
25 /file006.txt 200 OK 1188 0.001385
26 /file007.txt 200 OK 1138 0.001378
27 /file167.txt 200 OK 8246 0.002276
28 /file440.txt 200 OK 1038 0.003367
29 /file003.txt 200 OK 1559 0.002334
30 /file506.txt 200 OK 1350 0.002126
31 /file174.txt 200 OK 1221 0.002075
32 /file022.txt 200 OK 1143 0.002208
33 /file001.txt 200 OK 1477 0.001685
34 /file353.txt 200 OK 1101 0.004256
35 /file158.txt 200 OK 1134 0.001225
36 /file000.txt 200 OK 1389 0.000820
37 /file047.txt 200 OK 1226 0.002368
38 /file005.txt 200 OK 1231 0.001333
39 /file072.txt 200 OK 1093 0.000976
40 /file038.txt 200 OK 1627 0.002254
41 /file000.txt 200 OK 1389 0.001737
42 /file001.txt 200 OK 1477 0.001338
43 /file122.txt 200 OK 1202 0.001208
44 /file009.txt 200 OK 1323 0.001972
45 /file010.txt 200 OK 1423 0.001711
46 /file057.txt 200 OK 2439 0.002065
47 /file019.txt 200 OK 1089 0.002136
48 /file106.txt 200 OK 2732 0.002283
49 /file221.txt 200 OK 1059 0.001822
50 /file000.txt 200 OK 1389 0.002213
51 /file003.txt 200 OK 1559 0.002231
52 /file001.txt 200 OK 1477 0.001719
53 /file000.txt 200 OK 1389 0.001211
54 /file666.txt 200 OK 4054 0.001198
55 /file031.txt 200 OK 1533 0.000995
56 /file006.txt 200 OK 1188 0.000995
57 /file001.txt 200 OK 1477 0.001077
58 /file003.txt 200 OK 1559 0.000989
59 /file002.txt 200 OK 1056 0.002212
60 /file593.txt 200 OK 4458 0.001710
61 /file865.txt 200 OK 1373 0.001477
62 /file003.txt 200 OK 1559 0.002103
63 /file001.txt 200 OK 1477 0.001801
64 /file009.txt 200 OK 1323 0.002144
65 /file003.txt 200 OK 1559 0.002249
66 /file622.txt 200 OK 1589 0.001827
67 /file036.txt 200 OK 1070 0.001385
68 /file000.txt 200 OK 1389 0.001941
69 /file004.txt 200 OK 1153 0.001880
70 /file060.txt 200 OK 1186 0.001182
71 /file261.txt 200 OK 1546 0.001842
72 /file086.txt 200 OK 1446 0.002077
73 /file130.txt 200 OK 1736 0.001657
74 /file838.txt 200 OK 1422 0.002029
75 /file056.txt 200 OK 1084 0.001819
76 /file224.txt 200 OK 1189 0.001113
77 /file441.txt 200 OK 1225 0.001310
78 /file137.txt 200 OK 1063 0.001230
79 /file024.txt 200 OK 1255 0.000785
80 /file009.txt 200 OK 1323 0.001997
81 /file002.txt 200 OK 1056 0.001681
82 /file307.txt 200 OK 1150 0.002147
83 /file003.txt 200 OK 1559 0.001743
84 /file063.txt 200 OK 1254 0.002043
85 /file044.txt 200 OK 1278 0.001455
86 /file000.txt 200 OK 1389 0.001428
87 /file358.txt 200 OK 1450 0.001142
88 /file002.txt 200 OK 1056 0.001131
89 /file016.txt 200 OK 1286 0.002197
90 /file352.txt 200 OK 1995 0.001684
91 /file000.txt 200 OK 1389 0.002419
92 /file000.txt 200 OK 1389 0.001421
93 /file000.txt 200 OK 1389 0.002273
94 /file060.txt 200 OK 1186 0.001694
95 /file038.txt 200 OK 1627 0.001205
96 /file001.txt 200 OK 1477 0.001511
97 /file044.txt 200 OK 1278 0.001724
98 /file686.txt 200 OK 1722 0.002297
99 /file009.txt 200 OK 1323 0.001586
100 /file000.txt 200 OK 1389 0.002371
101 /file307.txt 200 OK 1150 0.002161
102 /file530.txt 200 OK 2187 0.002046
103 /file527.txt 200 OK 2239 0.001505
104 /file140.txt 200 OK 2657 0.002341
105 /file007.txt 200 OK 1138 0.001625
106 /file000.txt 200 OK 1389 0.002345
107 /file033.txt 200 OK 1618 0.001405
108 /file062.txt 200 OK 2496 0.002049
109 /file019.txt 200 OK 1089 0.002050
110 /file002.txt 200 OK 1056 0.001180
111 /file483.txt 200 OK 1215 0.002345
112 /file045.txt 200 OK 1253 0.001398
113 /file028.txt 200 OK 1892 0.002349
114 /file174.txt 200 OK 1221 0.001557
115 /file000.txt 200 OK 1389 0.002172
116 /file002.txt 200 OK 1056 0.002131
117 /file000.txt 200 OK 1389 0.002151
118 /file406.txt 200 OK 1223 0.002213
119 /file004.txt 200 OK 1153 0.001767
120 /file412.txt 200 OK 1039 0.001431
121 /file609.txt 200 OK 1143 0.001236
122 /file000.txt 200 OK 1389 0.002183
123 /file173.txt 200 OK 1031 0.001624
124 /file615.txt 200 OK 1643 0.001397
125 /file000.txt 200 OK 1389 0.002135
126 /file002.txt 200 OK 1056 0.001943
127 /file081.txt 200 OK 1821 0.001667
128 /file161.txt 200 OK 1227 0.001382
129 /file504.txt 200 OK 1757 0.002352
130 /file145.txt 200 OK 1099 0.001445
131 /file000.txt 200 OK 1389 0.001414
132 /file829.txt 200 OK 1760 0.001922
133 /file022.txt 200 OK 1143 0.001585
134 /file009.txt 200 OK 1323 0.002178
135 /file001.txt 200 OK 1477 0.002258
136 /file002.txt 200 OK 1056 0.001924
137 /file479.txt 200 OK 1337 0.001364
138 /file003.txt 200 OK 1559 0.001337
139 /file003.txt 200 OK 1559 0.002002
140 /file001.txt 200 OK 1477 0.001264
141 /file000.txt 200 OK 1389 0.002265
142 /file001.txt 200 OK 1477 0.002081
143 /file008.txt 200 OK 1511 0.001943
144 /file026.txt 200 OK 1463 0.001764
145 /file000.txt 200 OK 1389 0.002139
146 /file000.txt 200 OK 1389 0.001822
147 /file912.txt 200 OK 1067 0.002245
148 /file007.txt 200 OK 1138 0.002187
149 /file003.txt 200 OK 1559 0.001957
150 /file041.txt 200 OK 1328 0.002210
151 /file004.txt 200 OK 1153 0.001541
152 /file005.txt 200 OK 1231 0.002177
153 /file140.txt 200 OK 2657 0.002094
154 /file183.txt 200 OK 1118 0.002234
155 /file003.txt 200 OK 1559 0.001779
156 /file000.txt 200 OK 1389 0.001383
157 /file000.txt 200 OK 1389 0.001094
158 /file055.txt 200 OK 1900 0.001184
159 /file289.txt 200 OK 1072 0.000999
160 /file676.txt 200 OK 1193 0.002275
161 /file098.txt 200 OK 1459 0.001801
162 /file019.txt 200 OK 1089 0.001410
163 /file441.txt 200 OK 1225 0.002068
164 /file024.txt 200 OK 1255 0.002383
165 /file149.txt 200 OK 1213 0.002182
166 /file854.txt 200 OK 1548 0.002049
167 /file000.txt 200 OK 1389 0.001641
168 /file650.txt 200 OK 1026 0.001488
169 /file153.txt 200 OK 2585 0.002111
170 /file000.txt 200 OK 1389 0.002176
171 /file061.txt 200 OK 1425 0.002116
172 /file019.txt 200 OK 1089 0.001983
173 /file177.txt 200 OK 1613 0.001840
174 /file384.txt 200 OK 1120 0.001498
175 /file093.txt 200 OK 1626 0.002143
176 /file001.txt 200 OK 1477 0.001539
177 /file021.txt 200 OK 1138 0.002470
178 /file062.txt 200 OK 2496 0.001449
179 /file006.txt 200 OK 1188 0.002089
180 /file915.txt 200 OK 2188 0.001561
181 /file010.txt 200 OK 1423 0.002179
182 /file001.txt 200 OK 1477 0.002186
183 /file300.txt 200 OK 1122 0.002015
184 /file150.txt 200 OK 2143 0.002163
185 /file015.txt 200 OK 1337 0.002492
186 /file000.txt 200 OK 1389 0.001993
187 /file015.txt 200 OK 1337 0.001725
188 /file004.txt 200 OK 1153 0.001494
189 /file015.txt 200 OK 1337 0.001901
190 /file028.txt 200 OK 1892 0.001802
191 /file018.txt 200 OK 2502 0.001459
192 /file068.txt 200 OK 1727 0.001990
193 /file000.txt 200 OK 1389 0.001688
194 /file000.txt 200 OK 1389 0.001488
195 /file484.txt 200 OK 1333 0.001264
196 /file726.txt 200 OK 1108 0.001193
197 /file291.txt 200 OK 1042 0.001894
198 /file002.txt 200 OK 1056 0.001488
199 /file001.txt 200 OK 1477 0.001770
200 /file027.txt 200 OK 1498 0.002172
201 /file009.txt 200 OK 1323 0.001892
202 /file088.txt 200 OK 1135 0.001388
203 /file039.txt 200 OK 2044 0.001988
204 /file000.txt 200 OK 1389 0.001403
205 /file000.txt 200 OK 1389 0.002118
206 /file009.txt 200 OK 1323 0.002127
207 /file000.txt 200 OK 1389 0.001790
208 /file003.txt 200 OK 1559 0.001119
209 /file001.txt 200 OK 1477 0.001972
210 /file614.txt 200 OK 1358 0.002136
211 /file008.txt 200 OK 1511 0.002239
212 /file007.txt 200 OK 1138 0.002158
213 /file012.txt 200 OK 1293 0.002226
214 /file009.txt 200 OK 1323 0.001756
215 /file032.txt 200 OK 1307 0.001689
216 /file163.txt 200 OK 1350 0.001563
217 /file085.txt 200 OK 1598 0.002124
218 /file014.txt 200 OK 1113 0.001909
219 /file022.txt 200 OK 1143 0.001450
220 /file007.txt 200 OK 1138 0.002158
221 /file010.txt 200 OK 1423 0.002373
222 /file010.txt 200 OK 1423 0.001403
223 /file001.txt 200 OK 1477 0.002117
224 /file110.txt 200 OK 1391 0.001896
225 /file251.txt 200 OK 9026 0.001210
226 /file156.txt 200 OK 4903 0.001323
227 /file483.txt 200 OK 1215 0.001472
228 /file259.txt 200 OK 1308 0.002214
229 /file007.txt 200 OK 1138 0.001896
230 /file448.txt 200 OK 1381 0.001972
231 /file323.txt 200 OK 2001 0.002247
232 /file040.txt 200 OK 1049 0.001989
233 /file597.txt 200 OK 1386 0.002118
234 /file069.txt 200 OK 1391 0.001740
235 /file003.txt 200 OK 1559 0.001453
236 /file005.txt 200 OK 1231 0.002124
237 /file024.txt 200 OK 1255 0.001804
238 /file002.txt 200 OK 1056 0.002197
239 /file018.txt 200 OK 2502 0.001971
240 /file007.txt 200 OK 1138 0.001489
241 /file063.txt 200 OK 1254 0.001498
242 /file002.txt 200 OK 1056 0.001250
243 /file004.txt 200 OK 1153 0.002103
244 /file004.txt 200 OK 1153 0.002039
245 /file046.txt 200 OK 2334 0.002242
246 /file006.txt 200 OK 1188 0.001696
247 /file058.txt 200 OK 1087 0.001479
248 /file020.txt 200 OK 1308 0.002069
249 /file011.txt 200 OK 1129 0.001521
250 /file113.txt 200 OK 1066 0.001363
251 /file129.txt 200 OK 1381 0.001934
252 /file006.txt 200 OK 1188 0.001792
253 /file978.txt 200 OK 1608 0.002104
254 /file042.txt 200 OK 1047 0.002226
255 /file000.txt 200 OK 1389 0.001726
256 /file017.txt 200 OK 1781 0.002309
257 /file000.txt 200 OK 1389 0.001451
258 /file034.txt 200 OK 1434 0.002269
259 /file066.txt 200 OK 1462 0.002121
260 /file010.txt 200 OK 1423 0.002360
261 /file069.txt 200 OK 1391 0.001699
262 /file042.txt 200 OK 1047 0.001389
263 /file039.txt 200 OK 2044 0.001130
264 /file192.txt 200 OK 1732 0.002315
265 /file000.txt 200 OK 1389 0.001385
266 /file039.txt 200 OK 2044 0.002140
267 /file000.txt 200 OK 1389 0.002255
268 /file032.txt 200 OK 1307 0.002241
269 /file000.txt 200 OK 1389 0.001435
270 /file000.txt 200 OK 1389 0.001579
271 /file217.txt 200 OK 1060 0.002222
272 /file340.txt 200 OK 1262 0.002709
273 /file054.txt 200 OK 1104 0.001864
274 /file154.txt 200 OK 1168 0.001505
275 /file000.txt 200 OK 1389 0.001020
276 /file000.txt 200 OK 1389 0.001211
277 /file739.txt 200 OK 1802 0.002240
278 /file033.txt 200 OK 1618 0.002122
279 /file145.txt 200 OK 1099 0.001570
280 /file000.txt 200 OK 1389 0.002125
281 /file130.txt 200 OK 1736 0.001697
282 /file082.txt 200 OK 2211 0.001843
283 /file002.txt 200 OK 1056 0.001438
284 /file010.txt 200 OK 1423 0.001413
285 /file000.txt 200 OK 1389 0.000972
286 /file009.txt 200 OK 1323 0.002189
287 /file240.txt 200 OK 1733 0.001963
288 /file496.txt 200 OK 1031 0.001287
289 /file005.txt 200 OK 1231 0.001374
290 /file062.txt 200 OK 2496 0.002231
291 /file006.txt 200 OK 1188 0.001654
292 /file277.txt 200 OK 2002 0.001289
293 /file043.txt 200 OK 1647 0.001792
294 /file147.txt 200 OK 2046 0.002214
295 /file000.txt 200 OK 1389 0.001834
296 /file835.txt 200 OK 1092 0.001965
297 /file006.txt 200 OK 1188 0.001911
298 /file006.txt 200 OK 1188 0.002359
299 /file089.txt 200 OK 1059 0.001584
300 /file133.txt 200 OK 1055 0.001570
301 /file005.txt 200 OK 1231 0.001304
302 /file141.txt 200 OK 1218 0.001763
303 /file000.txt 200 OK 1389 0.002169
304 /file034.txt 200 OK 1434 0.001623
305 /file331.txt 200 OK 1183 0.001915
306 /file000.txt 200 OK 1389 0.001429
307 /file118.txt 200 OK 1471 0.001398
308 /file036.txt 200 OK 1070 0.002183
309 /file269.txt 200 OK 1287 0.001730
310 /file134.txt 200 OK 2484 0.002032
311 /file001.txt 200 OK 1477 0.002014
312 /file000.txt 200 OK 1389 0.001773
313 /file039.txt 200 OK 2044 0.001883
314 /file433.txt 200 OK 1032 0.001548
315 /file021.txt 200 OK 1138 0.001380
316 /file308.txt 200 OK 1240 0.001219
317 /file119.txt 200 OK 1294 0.001056
318 /file015.txt 200 OK 1337 0.001058
319 /file767.txt 200 OK 1640 0.002075
320 /file271.txt 200 OK 1136 0.001696
321 /file013.txt 200 OK 1063 0.001227
322 /file013.txt 200 OK 1063 0.001347
323 /file088.txt 200 OK 1135 0.002206
324 /file000.txt 200 OK 1389 0.002265
325 /file001.txt 200 OK 1477 0.002076
326 /file031.txt 200 OK 1533 0.001518
327 /file002.txt 200 OK 1056 0.002243
328 /file027.txt 200 OK 1498 0.002122
329 /file001.txt 200 OK 1477 0.002233
330 /file436.txt 200 OK 1200 0.001770
331 /file026.txt 200 OK 1463 0.002169
332 /file003.txt 200 OK 1559 0.001945
333 /file414.txt 200 OK 1113 0.001689
334 /file000.txt 200 OK 1389 0.001446
335 /file020.txt 200 OK 1308 0.001176
336 /file039.txt 200 OK 2044 0.001932
337 /file079.txt 200 OK 1760 0.002131
338 /file061.txt 200 OK 1425 0.001717
339 /file000.txt 200 OK 1389 0.001381
340 /file307.txt 200 OK 1150 0.001170
341 /file000.txt 200 OK 1389 0.002236
342 /file112.txt 200 OK 2826 0.001645
343 /file321.txt 200 OK 1859 0.002085
344 /file266.txt 200 OK 1795 0.001694
345 /file239.txt 200 OK 1320 0.002202
346 /file067.txt 200 OK 1904 0.002363
347 /file453.txt 200 OK 1353 0.001456
348 /file052.txt 200 OK 1203 0.001464
349 /file095.txt 200 OK 1434 0.002129
350 /file097.txt 200 OK 1083 0.001605
351 /file000.txt 200 OK 1389 0.001379
352 /file233.txt 200 OK 1304 0.002145
353 /file007.txt 200 OK 1138 0.002368
354 /file039.txt 200 OK 2044 0.001439
355 /file010.txt 200 OK 1423 0.001970
356 /file024.txt 200 OK 1255 0.001600
357 /file003.txt 200 OK 1559 0.002092
358 /file440.txt 200 OK 1038 0.002007
359 /file070.txt 200 OK 1332 0.001683
360 /file000.txt 200 OK 1389 0.001493
361 /file001.txt 200 OK 1477 0.001942
362 /file000.txt 200 OK 1389 0.001734
363 /file533.txt 200 OK 1443 0.001438
364 /file095.txt 200 OK 1434 0.001171
365 /file149.txt 200 OK 1213 0.002150
366 /file004.txt 200 OK 1153 0.002216
367 /file000.txt 200 OK 1389 0.001928
368 /file028.txt 200 OK 1892 0.001835
369 /file002.txt 200 OK 1056 0.002179
370 /file001.txt 200 OK 1477 0.001638
371 /file230.txt 200 OK 1260 0.002234
372 /file006.txt 200 OK 1188 0.001928
373 /file001.txt 200 OK 1477 0.001426
374 /file005.txt 200 OK 1231 0.002107
375 /file005.txt 200 OK 1231 0.001456
376 /file015.txt 200 OK 1337 0.002282
377 /file012.txt 200 OK 1293 0.001765
378 /file000.txt 200 OK 1389 0.001498
379 /file290.txt 200 OK 1105 0.001270
380 /file020.txt 200 OK 1308 0.002209
381 /file000.txt 200 OK 1389 0.002030
382 /file579.txt 200 OK 1647 0.002064
383 /file031.txt 200 OK 1533 0.001469
384 /file119.txt 200 OK 1294 0.002190
385 /file144.txt 200 OK 1530 0.001750
386 /file204.txt 200 OK 1039 0.002271
387 /file283.txt 200 OK 1290 0.002246
388 /file000.txt 200 OK 1389 0.002015
389 /file085.txt 200 OK 1598 0.001718
390 /file015.txt 200 OK 1337 0.001412
391 /file422.txt 200 OK 1498 0.001940
392 /file003.txt 200 OK 1559 0.001438
393 /file001.txt 200 OK 1477 0.001396
394 /file044.txt 200 OK 1278 0.001189
395 /file029.txt 200 OK 2454 0.002170
396 /file000.txt 200 OK 1389 0.002153
397 /file001.txt 200 OK 1477 0.001772
398 /file017.txt 200 OK 1781 0.001003
399 /file004.txt 200 OK 1153 0.001007
400 /file000.txt 200 OK 1389 0.002000
401 /file223.txt 200 OK 1970 0.001836
402 /file000.txt 200 OK 1389 0.002225
403 /file051.txt 200 OK 1366 0.002090
404 /file082.txt 200 OK 2211 0.001973
405 /file011.txt 200 OK 1129 0.002139
406 /file000.txt 200 OK 1389 0.001682
407 /file037.txt 200 OK 1351 0.001768
408 /file023.txt 200 OK 1164 0.001686
409 /file000.txt 200 OK 1389 0.001540
410 /file000.txt 200 OK 1389 0.002213
411 /file067.txt 200 OK 1904 0.001776
412 /file001.txt 200 OK 1477 0.002280
413 /file213.txt 200 OK 1029 0.001405
414 /file001.txt 200 OK 1477 0.001489
415 /file043.txt 200 OK 1647 0.001161
416 /file001.txt 200 OK 1477 0.000982
417 /file177.txt 200 OK 1613 0.002121
418 /file004.txt 200 OK 1153 0.001671
419 /file015.txt 200 OK 1337 0.002199
420 /file059.txt 200 OK 1134 0.001814
421 /file002.txt 200 OK 1056 0.001128
422 /file316.txt 200 OK 1629 0.002030
423 /file163.txt 200 OK 1350 0.002363
424 /file047.txt 200 OK 1226 0.001636
425 /file019.txt 200 OK 1089 0.002256
426 /file051.txt 200 OK 1366 0.001666
427 /file254.txt 200 OK 1522 0.002179
428 /file260.txt 200 OK 1352 0.002007
429 /file001.txt 200 OK 1477 0.002272
430 /file001.txt 200 OK 1477 0.001492
431 /file000.txt 200 OK 1389 0.001643
432 /file182.txt 200 OK 1310 0.001320
433 /file162.txt 200 OK 1137 0.002074
434 /file168.txt 200 OK 1597 0.002191
435 /file055.txt 200 OK 1900 0.002206
436 /file077.txt 200 OK 1443 0.001754
437 /file132.txt 200 OK 2068 0.001737
438 /file012.txt 200 OK 1293 0.001916
439 /file007.txt 200 OK 1138 0.002043
440 /file002.txt 200 OK 1056 0.001768
441 /file750.txt 200 OK 1271 0.002375
442 /file000.txt 200 OK 1389 0.001938
443 /file078.txt 200 OK 1296 0.001262
444 /file584.txt 200 OK 1088 0.001898
445 /file137.txt 200 OK 1063 0.002320
446 /file085.txt 200 OK 1598 0.001826
447 /file174.txt 200 OK 1221 0.001592
448 /file073.txt 200 OK 1439 0.001184
449 /file077.txt 200 OK 1443 0.001162
450 /file000.txt 200 OK 1389 0.000989
451 /file003.txt 200 OK 1559 0.002150
452 /file000.txt 200 OK 1389 0.001714
453 /file001.txt 200 OK 1477 0.002172
454 /file112.txt 200 OK 2826 0.002265
455 /file000.txt 200 OK 1389 0.001831
456 /file004.txt 200 OK 1153 0.001487
457 /file025.txt 200 OK 1133 0.001244
458 /file000.txt 200 OK 1389 0.001157
459 /file017.txt 200 OK 1781 0.001060
460 /file037.txt 200 OK 1351 0.001048
461 /file009.txt 200 OK 1323 0.001035
462 /file007.txt 200 OK 1138 0.001024
463 /file038.txt 200 OK 1627 0.001139
464 /file645.txt 200 OK 1316 0.001035
465 /file000.txt 200 OK 1389 0.002157
466 /file139.txt 200 OK 1054 0.001734
467 /file713.txt 200 OK 1470 0.001417
468 /file067.txt 200 OK 1904 0.001147
469 /file042.txt 200 OK 1047 0.001021
470 /file023.txt 200 OK 1164 0.001082
471 /file039.txt 200 OK 2044 0.002215
472 /file003.txt 200 OK 1559 0.001730
473 /file031.txt 200 OK 1533 0.002364
474 /file003.txt 200 OK 1559 0.001989
475 /file000.txt 200 OK 1389 0.002133
476 /file000.txt 200 OK 1389 0.002001
477 /file002.txt 200 OK 1056 0.002213
478 /file411.txt 200 OK 1345 0.001865
479 /file043.txt 200 OK 1647 0.001810
480 /file000.txt 200 OK 1389 0.001393
481 /file777.txt 200 OK 1523 0.002255
482 /file001.txt 200 OK 1477 0.001382
483 /file041.txt 200 OK 1328 0.001207
484 /file151.txt 200 OK 1986 0.001173
485 /file001.txt 200 OK 1477 0.002244
486 /file021.txt 200 OK 1138 0.001686
487 /file250.txt 200 OK 1673 0.002299
488 /file169.txt 200 OK 1136 0.001722
489 /file204.txt 200 OK 1039 0.001440
490 /file021.txt 200 OK 1138 0.002094
491 /file004.txt 200 OK 1153 0.001713
492 /file000.txt 200 OK 1389 0.002412
493 /file020.txt 200 OK 1308 0.001480
494 /file593.txt 200 OK 4458 0.002055
495 /file013.txt 200 OK 1063 0.002194
496 /file096.txt 200 OK 2264 0.002132
497 /file003.txt 200 OK 1559 0.002027
498 /file002.txt 200 OK 1056 0.001515
499 /file000.txt 200 OK 1389 0.002357
500 /file620.txt 200 OK 1106 0.002198
501 /file008.txt 200 OK 1511 0.001777
502 /file003.txt 200 OK 1559 0.002277
503 /file069.txt 200 OK 1391 0.002172
504 /file003.txt 200 OK 1559 0.002214
505 /file052.txt 200 OK 1203 0.001825
506 /file129.txt 200 OK 1381 0.002167
507 /file000.txt 200 OK 1389 0.002180
508 /file009.txt 200 OK 1323 0.002132
509 /file002.txt 200 OK 1056 0.001502
510 /file004.txt 200 OK 1153 0.001724
511 /file626.txt 200 OK 1047 0.001478
512 /file848.txt 200 OK 1052 0.001475
513 /file014.txt 200 OK 1113 0.002361
514 /file062.txt 200 OK 2496 0.001976
515 /file008.txt 200 OK 1511 0.001197
516 /file995.txt 200 OK 1327 0.001865
517 /file150.txt 200 OK 2143 0.002192
518 /file231.txt 200 OK 2537 0.002292
519 /file669.txt 200 OK 1039 0.002042
520 /file070.txt 200 OK 1332 0.001527
521 /file005.txt 200 OK 1231 0.001376
522 /file000.txt 200 OK 1389 0.001359
523 /file214.txt 200 OK 1337 0.002130
524 /file430.txt 200 OK 1143 0.002080
525 /file128.txt 200 OK 1369 0.001790
526 /file241.txt 200 OK 1211 0.001683
527 /file011.txt 200 OK 1129 0.000969
528 /file024.txt 200 OK 1255 0.001694
529 /file865.txt 200 OK 1373 0.002379
530 /file057.txt 200 OK 2439 0.001457
531 /file001.txt 200 OK 1477 0.001395
532 /file735.txt 200 OK 1144 0.002004
533 /file014.txt 200 OK 1113 0.002245
534 /file937.txt 200 OK 1262 0.002076
535 /file088.txt 200 OK 1135 0.001618
536 /file379.txt 200 OK 1272 0.001812
537 /file007.txt 200 OK 1138 0.002193
538 /file001.txt 200 OK 1477 0.001717
539 /file000.txt 200 OK 1389 0.002126
540 /file004.txt 200 OK 1153 0.001652
541 /file001.txt 200 OK 1477 0.002199
542 /file002.txt 200 OK 1056 0.001807
543 /file236.txt 200 OK 1070 0.002473
544 /file004.txt 200 OK 1153 0.001527
545 /file001.txt 200 OK 1477 0.001389
546 /file113.txt 200 OK 1066 0.002071
547 /file028.txt 200 OK 1892 0.002302
548 /file000.txt 200 OK 1389 0.001613
549 /file001.txt 200 OK 1477 0.002188
550 /file466.txt 200 OK 1363 0.001812
551 /file033.txt 200 OK 1618 0.002241
552 /file031.txt 200 OK 1533 0.001895
553 /file178.txt 200 OK 1184 0.002282
554 /file000.txt 200 OK 1389 0.001994
555 /file002.txt 200 OK 1056 0.001456
556 /file004.txt 200 OK 1153 0.001340
557 /file014.txt 200 OK 1113 0.001269
558 /file035.txt 200 OK 2066 0.000993
559 /file003.txt 200 OK 1559 0.000946
560 /file082.txt 200 OK 2211 0.002024
561 /file020.txt 200 OK 1308 0.001791
562 /file066.txt 200 OK 1462 0.002092
563 /file005.txt 200 OK 1231 0.001401
564 /file548.txt 200 OK 1109 0.002164
565 /file012.txt 200 OK 1293 0.003121
566 /file000.txt 200 OK 1389 0.001344
567 /file000.txt 200 OK 1389 0.001177
568 /file031.txt 200 OK 1533 0.001884
569 /file913.txt 200 OK 1068 0.002139
570 /file022.txt 200 OK 1143 0.002087
571 /file001.txt 200 OK 1477 0.002171
572 /file005.txt 200 OK 1231 0.001868
573 /file000.txt 200 OK 1389 0.002005
574 /file003.txt 200 OK 1559 0.001733
575 /file001.txt 200 OK 1477 0.002378
576 /file000.txt 200 OK 1389 0.001934
577 /file008.txt 200 OK 1511 0.002207
578 /file202.txt 200 OK 1346 0.002159
579 /file001.txt 200 OK 1477 0.002323
580 /file000.txt 200 OK 1389 0.001816
581 /file013.txt 200 OK 1063 0.001517
582 /file120.txt 200 OK 2801 0.002229
583 /file023.txt 200 OK 1164 0.001802
584 /file047.txt 200 OK 1226 0.002249
585 /file125.txt 200 OK 1056 0.001857
586 /file004.txt 200 OK 1153 0.001115
587 /file761.txt 200 OK 1139 0.001594
588 /file000.txt 200 OK 1389 0.001040
589 /file217.txt 200 OK 1060 0.002062
590 /file000.txt 200 OK 1389 0.001953
591 /file152.txt 200 OK 1040 0.002001
592 /file136.txt 200 OK 1307 0.001652
593 /file084.txt 200 OK 2230 0.002397
594 /file376.txt 200 OK 1106 0.002219
595 /file001.txt 200 OK 1477 0.002096
596 /file024.txt 200 OK 1255 0.002111
597 /file646.txt 200 OK 1633 0.002188
598 /file370.txt 200 OK 1041 0.001774
599 /file202.txt 200 OK 1346 0.001434
600 /file056.txt 200 OK 1084 0.002414
601 /file138.txt 200 OK 1321 0.001469
602 /file000.txt 200 OK 1389 0.001369
603 /file074.txt 200 OK 2146 0.001536
604 /file000.txt 200 OK 1389 0.001800
605 /file450.txt 200 OK 1488 0.002151
606 /file031.txt 200 OK 1533 0.002133
607 /file436.txt 200 OK 1200 0.002161
608 /file205.txt 200 OK 1047 0.001722
609 /file000.txt 200 OK 1389 0.001861
610 /file154.txt 200 OK 1168 0.002050
611 /file008.txt 200 OK 1511 0.002152
612 /file194.txt 200 OK 1812 0.001713
613 /file038.txt 200 OK 1627 0.002200
614 /file662.txt 200 OK 1305 0.001874
615 /file296.txt 200 OK 1197 0.001372
616 /file130.txt 200 OK 1736 0.001250
617 /file000.txt 200 OK 1389 0.001247
618 /file001.txt 200 OK 1477 0.001555
619 /file152.txt 200 OK 1040 0.001427
620 /file031.txt 200 OK 1533 0.001149
621 /file025.txt 200 OK 1133 0.001089
622 /file126.txt 200 OK 1027 0.000978
623 /file000.txt 200 OK 1389 0.001711
624 /file003.txt 200 OK 1559 0.001432
625 /file017.txt 200 OK 1781 0.001324
626 /file162.txt 200 OK 1137 0.000837
627 /file000.txt 200 OK 1389 0.002257
628 /file006.txt 200 OK 1188 0.002032
629 /file072.txt 200 OK 1093 0.002382
630 /file038.txt 200 OK 1627 0.002182
631 /file086.txt 200 OK 1446 0.001852
632 /file038.txt 200 OK 1627 0.002151
633 /file424.txt 200 OK 1327 0.001744
634 /file773.txt 200 OK 2544 0.001964
635 /file010.txt 200 OK 1423 0.001628
636 /file000.txt 200 OK 1389 0.001856
637 /file000.txt 200 OK 1389 0.001475
638 /file463.txt 200 OK 1519 0.002123
639 /file001.txt 200 OK 1477 0.001685
640 /file006.txt 200 OK 1188 0.001755
641 /file020.txt 200 OK 1308 0.002211
642 /file102.txt 200 OK 2006 0.002234
643 /file006.txt 200 OK 1188 0.002226
644 /file004.txt 200 OK 1153 0.002473
645 /file000.txt 200 OK 1389 0.001587
646 /file002.txt 200 OK 1056 0.001531
647 /file000.txt 200 OK 1389 0.001212
648 /file200.txt 200 OK 2077 0.001429
649 /file008.txt 200 OK 1511 0.001200
650 /file462.txt 200 OK 1611 0.001127
651 /file011.txt 200 OK 1129 0.002095
652 /file118.txt 200 OK 1471 0.001697
653 /file001.txt 200 OK 1477 0.001840
654 /file000.txt 200 OK 1389 0.001670
655 /file972.txt 200 OK 1599 0.001605
656 /file009.txt 200 OK 1323 0.001158
657 /file001.txt 200 OK 1477 0.001159
658 /file010.txt 200 OK 1423 0.001148
659 /file367.txt 200 OK 1117 0.001079
660 /file007.txt 200 OK 1138 0.002352
661 /file027.txt 200 OK 1498 0.001401
662 /file010.txt 200 OK 1423 0.003930
663 /file367.txt 200 OK 1117 0.001808
664 /file000.txt 200 OK 1389 0.001799
665 /file000.txt 200 OK 1389 0.001578
666 /file685.txt 200 OK 1216 0.001110
667 /file012.txt 200 OK 1293 0.002087
668 /file003.txt 200 OK 1559 0.001902
669 /file000.txt 200 OK 1389 0.001284
670 /file218.txt 200 OK 1515 0.001938
671 /file480.txt 200 OK 1266 0.001759
672 /file334.txt 200 OK 1389 0.001357
673 /file004.txt 200 OK 1153 0.002069
674 /file006.txt 200 OK 1188 0.002143
675 /file491.txt 200 OK 1269 0.002137
676 /file399.txt 200 OK 1205 0.002119
677 /file004.txt 200 OK 1153 0.001696
678 /file432.txt 200 OK 1099 0.001201
679 /file081.txt 200 OK 1821 0.001451
680 /file020.txt 200 OK 1308 0.002007
681 /file001.txt 200 OK 1477 0.001321
682 /file009.txt 200 OK 1323 0.001068
683 /file002.txt 200 OK 1056 0.001115
684 /file001.txt 200 OK 1477 0.001043
685 /file006.txt 200 OK 1188 0.002203
686 /file004.txt 200 OK 1153 0.001532
687 /file302.txt 200 OK 1357 0.001512
688 /file168.txt 200 OK 1597 0.001152
689 /file000.txt 200 OK 1389 0.001244
690 /file004.txt 200 OK 1153 0.002141
691 /file009.txt 200 OK 1323 0.002091
692 /file000.txt 200 OK 1389 0.002079
693 /file001.txt 200 OK 1477 0.001795
694 /file340.txt 200 OK 1262 0.001250
695 /file373.txt 200 OK 1807 0.001260
696 /file387.txt 200 OK 1101 0.001041
697 /file001.txt 200 OK 1477 0.002207
698 /file459.txt 200 OK 1104 0.001680
699 /file000.txt 200 OK 1389 0.001350
700 /file072.txt 200 OK 1093 0.002392
701 /file038.txt 200 OK 1627 0.002110
702 /file000.txt 200 OK 1389 0.001967
703 /file000.txt 200 OK 1389 0.002036
704 /file007.txt 200 OK 1138 0.001739
705 /file001.txt 200 OK 1477 0.001284
706 /file036.txt 200 OK 1070 0.001544
707 /file144.txt 200 OK 1530 0.002198
708 /file001.txt 200 OK 1477 0.001499
709 /file004.txt 200 OK 1153 0.001825
710 /file010.txt 200 OK 1423 0.002177
711 /file610.txt 200 OK 1127 0.001519
712 /file000.txt 200 OK 1389 0.002242
713 /file009.txt 200 OK 1323 0.001641
714 /file094.txt 200 OK 1666 0.002146
715 /file110.txt 200 OK 1391 0.002201
716 /file000.txt 200 OK 1389 0.001438
717 /file133.txt 200 OK 1055 0.002137
718 /file156.txt 200 OK 4903 0.001667
719 /file712.txt 200 OK 1192 0.002259
720 /file699.txt 200 OK 2184 0.002170
721 /file000.txt 200 OK 1389 0.002120
722 /file001.txt 200 OK 1477 0.002365
723 /file459.txt 200 OK 1104 0.002124
724 /file071.txt 200 OK 1141 0.002257
725 /file271.txt 200 OK 1136 0.001666
726 /file002.txt 200 OK 1056 0.002162
727 /file220.txt 200 OK 1881 0.002141
728 /file430.txt 200 OK 1143 0.001818
729 /file028.txt 200 OK 1892 0.001608
730 /file000.txt 200 OK 1389 0.001174
731 /file027.txt 200 OK 1498 0.002039
732 /file041.txt 200 OK 1328 0.001553
733 /file000.txt 200 OK 1389 0.001439
734 /file159.txt 200 OK 1464 0.001112
735 /file003.txt 200 OK 1559 0.000978
736 /file008.txt 200 OK 1511 0.002263
737 /file962.txt 200 OK 1230 0.001465
738 /file016.txt 200 OK 1286 0.002153
739 /file000.txt 200 OK 1389 0.001855
740 /file604.txt 200 OK 1352 0.001885
741 /file010.txt 200 OK 1423 0.001621
742 /file082.txt 200 OK 2211 0.002206
743 /file004.txt 200 OK 1153 0.002219
744 /file139.txt 200 OK 1054 0.002197
745 /file187.txt 200 OK 1724 0.002358
746 /file388.txt 200 OK 1466 0.001737
747 /file066.txt 200 OK 1462 0.001506
748 /file019.txt 200 OK 1089 0.002230
749 /file026.txt 200 OK 1463 0.001622
750 /file002.txt 200 OK 1056 0.002188
751 /file033.txt 200 OK 1618 0.002069
752 /file000.txt 200 OK 1389 0.002125
753 /file467.txt 200 OK 4893 0.002461
754 /file005.txt 200 OK 1231 0.001502
755 /file103.txt 200 OK 3262 0.002250
756 /file011.txt 200 OK 1129 0.001886
757 /file006.txt 200 OK 1188 0.001838
758 /file128.txt 200 OK 1369 0.001244
759 /file051.txt 200 OK 1366 0.002146
760 /file012.txt 200 OK 1293 0.001951
761 /file323.txt 200 OK 2001 0.002066
762 /file951.txt 200 OK 1068 0.002074
763 /file073.txt 200 OK 1439 0.001798
764 /file214.txt 200 OK 1337 0.001292
765 /file005.txt 200 OK 1231 0.002062
766 /file000.txt 200 OK 1389 0.002199
767 /file248.txt 200 OK 1033 0.002150
768 /file019.txt 200 OK 1089 0.001957
769 /file784.txt 200 OK 1160 0.002120
770 /file260.txt 200 OK 1352 0.002047
771 /file007.txt 200 OK 1138 0.001131
772 /file062.txt 200 OK 2496 0.002233
773 /file548.txt 200 OK 1109 0.002105
774 /file082.txt 200 OK 2211 0.001518
775 /file003.txt 200 OK 1559 0.002212
776 /file001.txt 200 OK 1477 0.001723
777 /file000.txt 200 OK 1389 0.001408
778 /file270.txt 200 OK 1113 0.001269
779 /file002.txt 200 OK 1056 0.002164
780 /file001.txt 200 OK 1477 0.001873
781 /file016.txt 200 OK 1286 0.002197
782 /file115.txt 200 OK 1840 0.002227
783 /file197.txt 200 OK 3377 0.001406
784 /file365.txt 200 OK 1211 0.001933
785 /file145.txt 200 OK 1099 0.001724
786 /file072.txt 200 OK 1093 0.002129
787 /file008.txt 200 OK 1511 0.002272
788 /file003.txt 200 OK 1559 0.001809
789 /file001.txt 200 OK 1477 0.002166
790 /file003.txt 200 OK 1559 0.001733
791 /file002.txt 200 OK 1056 0.001153
792 /file053.txt 200 OK 1046 0.002279
793 /file008.txt 200 OK 1511 0.002063
794 /file009.txt 200 OK 1323 0.001987
795 /file060.txt 200 OK 1186 0.001376
796 /file001.txt 200 OK 1477 0.002467
797 /file000.txt 200 OK 1389 0.001382
798 /file011.txt 200 OK 1129 0.002110
799 /file007.txt 200 OK 1138 0.001679
800 /file194.txt 200 OK 1812 0.001964
801 /file187.txt 200 OK 1724 0.001485
802 /file002.txt 200 OK 1056 0.002313
803 /file003.txt 200 OK 1559 0.001714
804 /file247.txt 200 OK 1093 0.002148
805 /file032.txt 200 OK 1307 0.002125
806 /file054.txt 200 OK 1104 0.001698
807 /file007.txt 200 OK 1138 0.001350
808 /file091.txt 200 OK 2008 0.001255
809 /file042.txt 200 OK 1047 0.001690
810 /file000.txt 200 OK 1389 0.001408
811 /file934.txt 200 OK 1566 0.001228
812 /file459.txt 200 OK 1104 0.002244
813 /file002.txt 200 OK 1056 0.002237
814 /file462.txt 200 OK 1611 0.002268
815 /file009.txt 200 OK 1323 0.001873
816 /file014.txt 200 OK 1113 0.001236
817 /file013.txt 200 OK 1063 0.001503
818 /file100.txt 200 OK 1851 0.001142
819 /file436.txt 200 OK 1200 0.001787
820 /file000.txt 200 OK 1389 0.001896
821 /file099.txt 200 OK 1230 0.002408
822 /file003.txt 200 OK 1559 0.002329
823 /file034.txt 200 OK 1434 0.001463
824 /file005.txt 200 OK 1231 0.002024
825 /file419.txt 200 OK 1598 0.001772
826 /file022.txt 200 OK 1143 0.001702
827 /file001.txt 200 OK 1477 0.001003
828 /file025.txt 200 OK 1133 0.001391
829 /file301.txt 200 OK 2717 0.000788
830 /file001.txt 200 OK 1477 0.001041
831 /file019.txt 200 OK 1089 0.000774
832 /file037.txt 200 OK 1351 0.001024
833 /file320.txt 200 OK 1461 0.001038
834 /file121.txt 200 OK 1358 0.002161
835 /file060.txt 200 OK 1186 0.002285
836 /file062.txt 200 OK 2496 0.002222
837 /file020.txt 200 OK 1308 0.001958
838 /file363.txt 200 OK 2353 0.001863
839 /file008.txt 200 OK 1511 0.001714
840 /file067.txt 200 OK 1904 0.002154
841 /file139.txt 200 OK 1054 0.001597
842 /file281.txt 200 OK 1340 0.002281
843 /file002.txt 200 OK 1056 0.001712
844 /file006.txt 200 OK 1188 0.001454
845 /file014.txt 200 OK 1113 0.001925
846 /file001.txt 200 OK 1477 0.001812
847 /file723.txt 200 OK 1123 0.001120
848 /file026.txt 200 OK 1463 0.003185
849 /file018.txt 200 OK 2502 0.001277
850 /file039.txt 200 OK 2044 0.000787
851 /file351.txt 200 OK 1629 0.002108
852 /file258.txt 200 OK 1268 0.001550
853 /file199.txt 200 OK 1038 0.002012
854 /file001.txt 200 OK 1477 0.001691
855 /file000.txt 200 OK 1389 0.001374
856 /file002.txt 200 OK 1056 0.001179
857 /file076.txt 200 OK 1201 0.002158
858 /file003.txt 200 OK 1559 0.001866
859 /file030.txt 200 OK 1582 0.002000
860 /file686.txt 200 OK 1722 0.001882
861 /file486.txt 200 OK 1365 0.001231
862 /file129.txt 200 OK 1381 0.002361
863 /file514.txt 200 OK 1476 0.001584
864 /file034.txt 200 OK 1434 0.001450
865 /file002.txt 200 OK 1056 0.001956
866 /file612.txt 200 OK 1188 0.001892
867 /file002.txt 200 OK 1056 0.001756
868 /file006.txt 200 OK 1188 0.001363
869 /file053.txt 200 OK 1046 0.001339
870 /file556.txt 200 OK 1048 0.001854
871 /file057.txt 200 OK 2439 0.002207
872 /file015.txt 200 OK 1337 0.002254
873 /file020.txt 200 OK 1308 0.001782
874 /file641.txt 200 OK 1142 0.002334
875 /file058.txt 200 OK 1087 0.002250
876 /file001.txt 200 OK 1477 0.002127
877 /file651.txt 200 OK 1474 0.002285
878 /file075.txt 200 OK 1128 0.001741
879 /file097.txt 200 OK 1083 0.002204
880 /file060.txt 200 OK 1186 0.001794
881 /file753.txt 200 OK 1069 0.001176
882 /file002.txt 200 OK 1056 0.002156
883 /file003.txt 200 OK 1559 0.002195
884 /file170.txt 200 OK 1169 0.002336
885 /file006.txt 200 OK 1188 0.002305
886 /file306.txt 200 OK 1314 0.002078
887 /file003.txt 200 OK 1559 0.001796
888 /file000.txt 200 OK 1389 0.001500
889 /file001.txt 200 OK 1477 0.001295
890 /file049.txt 200 OK 4445 0.000749
891 /file000.txt 200 OK 1389 0.001038
892 /file000.txt 200 OK 1389 0.002206
893 /file087.txt 200 OK 1136 0.001577
894 /file026.txt 200 OK 1463 0.001808
895 /file001.txt 200 OK 1477 0.001582
896 /file001.txt 200 OK 1477 0.002028
897 /file501.txt 200 OK 1123 0.002049
898 /file003.txt 200 OK 1559 0.002493
899 /file595.txt 200 OK 1895 0.001391
900 /file543.txt 200 OK 1222 0.001590
901 /file000.txt 200 OK 1389 0.001371
902 /file003.txt 200 OK 1559 0.001186
903 /file096.txt 200 OK 2264 0.001913
904 /file637.txt 200 OK 1348 0.001443
905 /file412.txt 200 OK 1039 0.001405
906 /file010.txt 200 OK 1423 0.002410
907 /file066.txt 200 OK 1462 0.001391
908 /file030.txt 200 OK 1582 0.002124
909 /file615.txt 200 OK 1643 0.001689
910 /file986.txt 200 OK 1075 0.002132
911 /file859.txt 200 OK 1067 0.002058
912 /file685.txt 200 OK 1216 0.001626
913 /file742.txt 200 OK 1034 0.002189
914 /file017.txt 200 OK 1781 0.001909
915 /file001.txt 200 OK 1477 0.001409
916 /file000.txt 200 OK 1389 0.002043
917 /file000.txt 200 OK 1389 0.002130
918 /file009.txt 200 OK 1323 0.001606
919 /file003.txt 200 OK 1559 0.001837
920 /file440.txt 200 OK 1038 0.002150
921 /file188.txt 200 OK 2215 0.002291
922 /file388.txt 200 OK 1466 0.001927
923 /file000.txt 200 OK 1389 0.001751
924 /file000.txt 200 OK 1389 0.001404
925 /file001.txt 200 OK 1477 0.001162
926 /file019.txt 200 OK 1089 0.001043
927 /file000.txt 200 OK 1389 0.001095
928 /file060.txt 200 OK 1186 0.002113
929 /file243.txt 200 OK 1093 0.002487
930 /file444.txt 200 OK 1767 0.001413
931 /file060.txt 200 OK 1186 0.001364
932 /file000.txt 200 OK 1389 0.001775
933 /file001.txt 200 OK 1477 0.002137
934 /file013.txt 200 OK 1063 0.001784
935 /file540.txt 200 OK 1308 0.001353
936 /file075.txt 200 OK 1128 0.001092
937 /file128.txt 200 OK 1369 0.000745
938 /file142.txt 200 OK 1358 0.002018
939 /file002.txt 200 OK 1056 0.001833
940 /file023.txt 200 OK 1164 0.002065
941 /file005.txt 200 OK 1231 0.001744
942 /file384.txt 200 OK 1120 0.002220
943 /file456.txt 200 OK 1140 0.002000
944 /file089.txt 200 OK 1059 0.002096
945 /file175.txt 200 OK 2182 0.001451
946 /file002.txt 200 OK 1056 0.002177
947 /file007.txt 200 OK 1138 0.002257
948 /file002.txt 200 OK 1056 0.002072
949 /file146.txt 200 OK 4747 0.002187
950 /file048.txt 200 OK 1438 0.002396
951 /file001.txt 200 OK 1477 0.001537
952 /file026.txt 200 OK 1463 0.001486
953 /file013.txt 200 OK 1063 0.001528
954 /file749.txt 200 OK 1639 0.002274
955 /file033.txt 200 OK 1618 0.002149
956 /file485.txt 200 OK 1309 0.002163
957 /file000.txt 200 OK 1389 0.001795
958 /file127.txt 200 OK 1354 0.001436
959 /file401.txt 200 OK 4036 0.002284
960 /file146.txt 200 OK 4747 0.002228
961 /file005.txt 200 OK 1231 0.001449
962 /file001.txt 200 OK 1477 0.002343
963 /file001.txt 200 OK 1477 0.001483
964 /file066.txt 200 OK 1462 0.001558
965 /file001.txt 200 OK 1477 0.001312
966 /file007.txt 200 OK 1138 0.002176
967 /file006.txt 200 OK 1188 0.001815
968 /file011.txt 200 OK 1129 0.002212
969 /file024.txt 200 OK 1255 0.001817
970 /file015.txt 200 OK 1337 0.002101
971 /file037.txt 200 OK 1351 0.002220
972 /file000.txt 200 OK 1389 0.001525
973 /file002.txt 200 OK 1056 0.001820
974 /file001.txt 200 OK 1477 0.002193
975 /file026.txt 200 OK 1463 0.001702
976 /file684.txt 200 OK 1212 0.002171
977 /file101.txt 200 OK 1350 0.001932
978 /file831.txt 200 OK 1060 0.002275
979 /file006.txt 200 OK 1188 0.001714
980 /file800.txt 200 OK 1090 0.001482
981 /file543.txt 200 OK 1222 0.001174
982 /file008.txt 200 OK 1511 0.001087
983 /file933.txt 200 OK 1715 0.001099
984 /file022.txt 200 OK 1143 0.001132
985 /file409.txt 200 OK 1037 0.001029
986 /file052.txt 200 OK 1203 0.001131
987 /file103.txt 200 OK 3262 0.001049
988 /file013.txt 200 OK 1063 0.002028
989 /file005.txt 200 OK 1231 0.002090
990 /file048.txt 200 OK 1438 0.001748
991 /file000.txt 200 OK 1389 0.001300
992 /file306.txt 200 OK 1314 0.001157
993 /file010.txt 200 OK 1423 0.001211
994 /file027.txt 200 OK 1498 0.001999
995 /file004.txt 200 OK 1153 0.002177
996 /file003.txt 200 OK 1559 0.001813
997 /file000.txt 200 OK 1389 0.001444
998 /file005.txt 200 OK 1231 0.001112
999 /file000.txt 200 OK 1389 0.002174
1000 /file000.txt 200 OK 1389 0.001720
1001 /file000.txt 200 OK 1389 0.002159
1002 /file089.txt 200 OK 1059 0.001173
1003 /file001.txt 200 OK 1477 0.002136
1004 /file045.txt 200 OK 1253 0.001806
1005 /file025.txt 200 OK 1133 0.001400
1006 /file137.txt 200 OK 1063 0.002260
1007 /file203.txt 200 OK 1310 0.001991
1008 /file091.txt 200 OK 2008 0.001821
1009 /file497.txt 200 OK 1304 0.002136
1010 /file247.txt 200 OK 1093 0.001839
1011 /file003.txt 200 OK 1559 0.001412
1012 /file000.txt 200 OK 1389 0.002140
1013 /file690.txt 200 OK 1534 0.002068
1014 /file000.txt 200 OK 1389 0.002198
1015 /file590.txt 200 OK 1044 0.001664
1016 /file002.txt 200 OK 1056 0.001895
1017 /file960.txt 200 OK 1411 0.002699
1018 /file261.txt 200 OK 1546 0.002135
1019 /file042.txt 200 OK 1047 0.001885
1020 /file011.txt 200 OK 1129 0.001361
1021 /file352.txt 200 OK 1995 0.001342
1022 /file055.txt 200 OK 1900 0.001071
1023 /file020.txt 200 OK 1308 0.001127
1024 /file876.txt 200 OK 1108 0.000994
1025 /file161.txt 200 OK 1227 0.002042
1026 /file007.txt 200 OK 1138 0.001518
1027 /file023.txt 200 OK 1164 0.002507
1028 /file000.txt 200 OK 1389 0.001433
1029 /file010.txt 200 OK 1423 0.002266
1030 /file091.txt 200 OK 2008 0.002108
1031 /file062.txt 200 OK 2496 0.001667
1032 /file067.txt 200 OK 1904 0.001450
1033 /file007.txt 200 OK 1138 0.001155
1034 /file005.txt 200 OK 1231 0.002478
1035 /file002.txt 200 OK 1056 0.001443
1036 /file579.txt 200 OK 1647 0.001061
1037 /file005.txt 200 OK 1231 0.001043
1038 /file232.txt 200 OK 1208 0.002164
1039 /file016.txt 200 OK 1286 0.001416
1040 /file015.txt 200 OK 1337 0.002139
1041 /file240.txt 200 OK 1733 0.001693
1042 /file821.txt 200 OK 1368 0.002269
1043 /file100.txt 200 OK 1851 0.002172
1044 /file004.txt 200 OK 1153 0.002222
1045 /file003.txt 200 OK 1559 0.002450
1046 /file052.txt 200 OK 1203 0.001448
1047 /file007.txt 200 OK 1138 0.002229
1048 /file512.txt 200 OK 1052 0.001463
1049 /file049.txt 200 OK 4445 0.002050
1050 /file000.txt 200 OK 1389 0.001592
1051 /file000.txt 200 OK 1389 0.001918
1052 /file108.txt 200 OK 1260 0.002164
1053 /file074.txt 200 OK 2146 0.002246
1054 /file433.txt 200 OK 1032 0.001941
1055 /file054.txt 200 OK 1104 0.001504
1056 /file001.txt 200 OK 1477 0.001443
1057 /file553.txt 200 OK 1654 0.001175
1058 /file005.txt 200 OK 1231 0.001813
1059 /file035.txt 200 OK 2066 0.002167
1060 /file360.txt 200 OK 1028 0.001722
1061 /file381.txt 200 OK 1481 0.002202
1062 /file076.txt 200 OK 1201 0.003768
1063 /file185.txt 200 OK 2042 0.002218
1064 /file000.txt 200 OK 1389 0.002120
1065 /file185.txt 200 OK 2042 0.002169
1066 /file006.txt 200 OK 1188 0.001723
1067 /file007.txt 200 OK 1138 0.001773
1068 /file020.txt 200 OK 1308 0.001390
1069 /file000.txt 200 OK 1389 0.001376
1070 /file230.txt 200 OK 1260 0.002148
1071 /file000.txt 200 OK 1389 0.001990
1072 /file135.txt 200 OK 1950 0.001676
1073 /file059.txt 200 OK 1134 0.002272
1074 /file018.txt 200 OK 2502 0.001400
1075 /file027.txt 200 OK 1498 0.001434
1076 /file000.txt 200 OK 1389 0.001194
1077 /file004.txt 200 OK 1153 0.002158
1078 /file638.txt 200 OK 1173 0.001640
1079 /file497.txt 200 OK 1304 0.001378
1080 /file002.txt 200 OK 1056 0.001196
1081 /file000.txt 200 OK 1389 0.002158
1082 /file102.txt 200 OK 2006 0.001699
1083 /file003.txt 200 OK 1559 0.001525
1084 /file246.txt 200 OK 1038 0.001171
1085 /file380.txt 200 OK 1445 0.002238
1086 /file210.txt 200 OK 1396 0.002246
1087 /file009.txt 200 OK 1323 0.001795
1088 /file002.txt 200 OK 1056 0.001483
1089 /file202.txt 200 OK 1346 0.001268
1090 /file715.txt 200 OK 1067 0.001053
1091 /file655.txt 200 OK 2032 0.001912
1092 /file052.txt 200 OK 1203 0.002102
1093 /file955.txt 200 OK 1542 0.002173
1094 /file029.txt 200 OK 2454 0.001835
1095 /file072.txt 200 OK 1093 0.001451
1096 /file564.txt 200 OK 1575 0.002025
1097 /file009.txt 200 OK 1323 0.001776
1098 /file112.txt 200 OK 2826 0.001516
1099 /file019.txt 200 OK 1089 0.002209
1100 /file000.txt 200 OK 1389 0.001691
1101 /file001.txt 200 OK 1477 0.002195
1102 /file017.txt 200 OK 1781 0.002272
1103 /file000.txt 200 OK 1389 0.001722
1104 /file623.txt 200 OK 1208 0.002065
1105 /file057.txt 200 OK 2439 0.001750
1106 /file001.txt 200 OK 1477 0.002161
1107 /file000.txt 200 OK 1389 0.001649
1108 /file000.txt 200 OK 1389 0.001352
1109 /file000.txt 200 OK 1389 0.001345
1110 /file007.txt 200 OK 1138 0.001152
1111 /file791.txt 200 OK 1947 0.002266
1112 /file099.txt 200 OK 1230 0.001660
1113 /file004.txt 200 OK 1153 0.002147
1114 /file002.txt 200 OK 1056 0.002348
1115 /file001.txt 200 OK 1477 0.001447
1116 /file130.txt 200 OK 1736 0.001588
1117 /file005.txt 200 OK 1231 0.001380
1118 /file023.txt 200 OK 1164 0.001985
1119 /file036.txt 200 OK 1070 0.001802
1120 /file000.txt 200 OK 1389 0.001522
1121 /file000.txt 200 OK 1389 0.001237
1122 /file034.txt 200 OK 1434 0.001050
1123 /file132.txt 200 OK 2068 0.001065
1124 /file001.txt 200 OK 1477 0.002385
1125 /file794.txt 200 OK 1025 0.001507
1126 /file116.txt 200 OK 1687 0.001465
1127 /file162.txt 200 OK 1137 0.001419
1128 /file003.txt 200 OK 1559 0.001098
1129 /file023.txt 200 OK 1164 0.001256
1130 /file001.txt 200 OK 1477 0.000781
1131 /file703.txt 200 OK 4116 0.002078
1132 /file000.txt 200 OK 1389 0.002176
1133 /file446.txt 200 OK 4451 0.001521
1134 /file033.txt 200 OK 1618 0.001514
1135 /file010.txt 200 OK 1423 0.001838
1136 /file000.txt 200 OK 1389 0.001446
1137 /file042.txt 200 OK 1047 0.001198
1138 /file000.txt 200 OK 1389 0.001713
1139 /file005.txt 200 OK 1231 0.002086
1140 /file000.txt 200 OK 1389 0.001385
1141 /file168.txt 200 OK 1597 0.001433
1142 /file003.txt 200 OK 1559 0.001337
1143 /file295.txt 200 OK 2024 0.002285
1144 /file103.txt 200 OK 3262 0.001687
1145 /file123.txt 200 OK 1493 0.001388
1146 /file974.txt 200 OK 1464 0.002074
1147 /file000.txt 200 OK 1389 0.001813
1148 /file060.txt 200 OK 1186 0.001419
1149 /file005.txt 200 OK 1231 0.002240
1150 /file081.txt 200 OK 1821 0.002268
1151 /file561.txt 200 OK 2114 0.001694
1152 /file000.txt 200 OK 1389 0.001937
1153 /file000.txt 200 OK 1389 0.001705
1154 /file412.txt 200 OK 1039 0.001378
1155 /file009.txt 200 OK 1323 0.001179
1156 /file137.txt 200 OK 1063 0.001255
1157 /file022.txt 200 OK 1143 0.002090
1158 /file001.txt 200 OK 1477 0.001731
1159 /file042.txt 200 OK 1047 0.001919
1160 /file674.txt 200 OK 1384 0.002290
1161 /file030.txt 200 OK 1582 0.001813
1162 /file112.txt 200 OK 2826 0.001584
1163 /file243.txt 200 OK 1093 0.002287
1164 /file005.txt 200 OK 1231 0.001672
1165 /file179.txt 200 OK 1383 0.001386
1166 /file551.txt 200 OK 2394 0.001817
1167 /file195.txt 200 OK 1257 0.001946
1168 /file001.txt 200 OK 1477 0.001797
1169 /file000.txt 200 OK 1389 0.001357
1170 /file932.txt 200 OK 1084 0.001055
1171 /file001.txt 200 OK 1477 0.002455
1172 /file007.txt 200 OK 1138 0.001467
1173 /file007.txt 200 OK 1138 0.001502
1174 /file005.txt 200 OK 1231 0.001931
1175 /file007.txt 200 OK 1138 0.002088
1176 /file100.txt 200 OK 1851 0.001433
1177 /file000.txt 200 OK 1389 0.002104
1178 /file201.txt 200 OK 2038 0.002128
1179 /file038.txt 200 OK 1627 0.001396
1180 /file007.txt 200 OK 1138 0.001703
1181 /file003.txt 200 OK 1559 0.001519
1182 /file097.txt 200 OK 1083 0.001422
1183 /file270.txt 200 OK 1113 0.002109
1184 /file016.txt 200 OK 1286 0.002068
1185 /file006.txt 200 OK 1188 0.002086
1186 /file012.txt 200 OK 1293 0.001640
1187 /file116.txt 200 OK 1687 0.001417
1188 /file017.txt 200 OK 1781 0.001173
1189 /file000.txt 200 OK 1389 0.002168
1190 /file002.txt 200 OK 1056 0.002140
1191 /file001.txt 200 OK 1477 0.002236
1192 /file062.txt 200 OK 2496 0.001742
1193 /file001.txt 200 OK 1477 0.002115
1194 /file269.txt 200 OK 1287 0.002134
1195 /file006.txt 200 OK 1188 0.002184
1196 /file012.txt 200 OK 1293 0.001669
1197 /file124.txt 200 OK 1694 0.002056
1198 /file050.txt 200 OK 1122 0.001703
1199 /file622.txt 200 OK 1589 0.001475
1200 /file000.txt 200 OK 1389 0.002052
1201 /file087.txt 200 OK 1136 0.001877
1202 /file135.txt 200 OK 1950 0.001493
1203 /file004.txt 200 OK 1153 0.002249
1204 /file029.txt 200 OK 2454 0.001877
1205 /file016.txt 200 OK 1286 0.002011
1206 /file003.txt 200 OK 1559 0.002182
1207 /file048.txt 200 OK 1438 0.001939
1208 /file229.txt 200 OK 1216 0.002238
1209 /file016.txt 200 OK 1286 0.001485
1210 /file549.txt 200 OK 1331 0.001615
1211 /file008.txt 200 OK 1511 0.001175
1212 /file002.txt 200 OK 1056 0.001207
1213 /file002.txt 200 OK 1056 0.002088
1214 /file063.txt 200 OK 1254 0.001801
1215 /file043.txt 200 OK 1647 0.001489
1216 /file434.txt 200 OK 1102 0.001735
1217 /file004.txt 200 OK 1153 0.001618
1218 /file003.txt 200 OK 1559 0.001478
1219 /file012.txt 200 OK 1293 0.001180
1220 /file000.txt 200 OK 1389 0.001067
1221 /file000.txt 200 OK 1389 0.001054
1222 /file003.txt 200 OK 1559 0.002208
1223 /file010.txt 200 OK 1423 0.001731
1224 /file006.txt 200 OK 1188 0.002230
1225 /file004.txt 200 OK 1153 0.002312
1226 /file003.txt 200 OK 1559 0.001682
1227 /file001.txt 200 OK 1477 0.002050
1228 /file009.txt 200 OK 1323 0.001602
1229 /file019.txt 200 OK 1089 0.001642
1230 /file003.txt 200 OK 1559 0.002043
1231 /file003.txt 200 OK 1559 0.002050
1232 /file848.txt 200 OK 1052 0.001907
1233 /file005.txt 200 OK 1231 0.002360
1234 /file032.txt 200 OK 1307 0.001636
1235 /file176.txt 200 OK 1158 0.001412
1236 /file905.txt 200 OK 1220 0.001390
1237 /file163.txt 200 OK 1350 0.001163
1238 /file022.txt 200 OK 1143 0.002237
1239 /file000.txt 200 OK 1389 0.001995
1240 /file044.txt 200 OK 1278 0.001775
1241 /file000.txt 200 OK 1389 0.002079
1242 /file007.txt 200 OK 1138 0.001492
1243 /file003.txt 200 OK 1559 0.001955
1244 /file500.txt 200 OK 4654 0.002058
1245 /file048.txt 200 OK 1438 0.002153
1246 /file613.txt 200 OK 1926 0.001839
1247 /file015.txt 200 OK 1337 0.001617
1248 /file065.txt 200 OK 1056 0.001444
1249 /file001.txt 200 OK 1477 0.001904
1250 /file012.txt 200 OK 1293 0.001615
1251 /file001.txt 200 OK 1477 0.002397
1252 /file096.txt 200 OK 2264 0.001402
1253 /file242.txt 200 OK 1250 0.002227
1254 /file023.txt 200 OK 1164 0.001900
1255 /file033.txt 200 OK 1618 0.001125
1256 /file015.txt 200 OK 1337 0.002213
1257 /file387.txt 200 OK 1101 0.002050
1258 /file009.txt 200 OK 1323 0.001711
1259 /file124.txt 200 OK 1694 0.002260
1260 /file009.txt 200 OK 1323 0.002296
1261 /file040.txt 200 OK 1049 0.001744
1262 /file733.txt 200 OK 1156 0.001504
1263 /file057.txt 200 OK 2439 0.001960
1264 /file000.txt 200 OK 1389 0.001591
1265 /file001.txt 200 OK 1477 0.001800
1266 /file000.txt 200 OK 1389 0.001342
1267 /file001.txt 200 OK 1477 0.001078
1268 /file651.txt 200 OK 1474 0.001129
1269 /file012.txt 200 OK 1293 0.001034
1270 /file000.txt 200 OK 1389 0.000996
1271 /file003.txt 200 OK 1559 0.001107
1272 /file020.txt 200 OK 1308 0.001016
1273 /file050.txt 200 OK 1122 0.001099
1274 /file029.txt 200 OK 2454 0.001130
1275 /file004.txt 200 OK 1153 0.002159
1276 /file627.txt 200 OK 1104 0.001660
1277 /file043.txt 200 OK 1647 0.002061
1278 /file400.txt 200 OK 1024 0.001976
1279 /file018.txt 200 OK 2502 0.001722
1280 /file535.txt 200 OK 1482 0.001498
1281 /file088.txt 200 OK 1135 0.002422
1282 /file055.txt 200 OK 1900 0.001402
1283 /file674.txt 200 OK 1384 0.002166
1284 /file143.txt 200 OK 1483 0.001893
1285 /file001.txt 200 OK 1477 0.001993
1286 /file004.txt 200 OK 1153 0.001368
1287 /file103.txt 200 OK 3262 0.002227
1288 /file371.txt 200 OK 1470 0.001758
1289 /file021.txt 200 OK 1138 0.002168
1290 /file058.txt 200 OK 1087 0.001816
1291 /file409.txt 200 OK 1037 0.001523
1292 /file017.txt 200 OK 1781 0.001899
1293 /file000.txt 200 OK 1389 0.002241
1294 /file018.txt 200 OK 2502 0.001514
1295 /file097.txt 200 OK 1083 0.001441
1296 /file116.txt 200 OK 1687 0.001759
1297 /file688.txt 200 OK 1303 0.002241
1298 /file714.txt 200 OK 1229 0.001652
1299 /file000.txt 200 OK 1389 0.001430
1300 /file002.txt 200 OK 1056 0.002014
1301 /file168.txt 200 OK 1597 0.002021
1302 /file040.txt 200 OK 1049 0.001730
1303 /file072.txt 200 OK 1093 0.001130
1304 /file001.txt 200 OK 1477 0.001225
1305 /file629.txt 200 OK 1097 0.001109
1306 /file039.txt 200 OK 2044 0.006165
1307 /file004.txt 200 OK 1153 0.002227
1308 /file001.txt 200 OK 1477 0.002169
1309 /file048.txt 200 OK 1438 0.001655
1310 /file240.txt 200 OK 1733 0.001442
1311 /file910.txt 200 OK 1194 0.001182
1312 /file003.txt 200 OK 1559 0.002240
1313 /file008.txt 200 OK 1511 0.001862
1314 /file017.txt 200 OK 1781 0.001900
1315 /file433.txt 200 OK 1032 0.002039
1316 /file219.txt 200 OK 2737 0.001891
1317 /file004.txt 200 OK 1153 0.001354
1318 /file005.txt 200 OK 1231 0.002034
1319 /file002.txt 200 OK 1056 0.001485
1320 /file070.txt 200 OK 1332 0.002231
1321 /file001.txt 200 OK 1477 0.001717
1322 /file019.txt 200 OK 1089 0.001392
1323 /file466.txt 200 OK 1363 0.002156
1324 /file064.txt 200 OK 1141 0.001728
1325 /file000.txt 200 OK 1389 0.002173
1326 /file083.txt 200 OK 1945 0.002126
1327 /file122.txt 200 OK 1202 0.001836
1328 /file034.txt 200 OK 1434 0.001267
1329 /file000.txt 200 OK 1389 0.001458
1330 /file182.txt 200 OK 1310 0.002394
1331 /file001.txt 200 OK 1477 0.002062
1332 /file001.txt 200 OK 1477 0.001664
1333 /file053.txt 200 OK 1046 0.001404
1334 /file234.txt 200 OK 1522 0.001691
1335 /file412.txt 200 OK 1039 0.002198
1336 /file005.txt 200 OK 1231 0.001389
1337 /file178.txt 200 OK 1184 0.002199
1338 /file172.txt 200 OK 1225 0.001380
1339 /file357.txt 200 OK 1869 0.001990
1340 /file245.txt 200 OK 2319 0.002210
1341 /file066.txt 200 OK 1462 0.002139
1342 /file005.txt 200 OK 1231 0.002342
1343 /file844.txt 200 OK 1058 0.002079
1344 /file016.txt 200 OK 1286 0.001925
1345 /file000.txt 200 OK 1389 0.001622
1346 /file267.txt 200 OK 2253 0.001984
1347 /file015.txt 200 OK 1337 0.001718
1348 /file013.txt 200 OK 1063 0.002097
1349 /file021.txt 200 OK 1138 0.002188
1350 /file187.txt 200 OK 1724 0.001565
1351 /file718.txt 200 OK 1258 0.001303
1352 /file004.txt 200 OK 1153 0.001952
1353 /file006.txt 200 OK 1188 0.001508
1354 /file204.txt 200 OK 1039 0.002304
1355 /file006.txt 200 OK 1188 0.001653
1356 /file000.txt 200 OK 1389 0.001500
1357 /file002.txt 200 OK 1056 0.001282
1358 /file455.txt 200 OK 1058 0.000974
1359 /file192.txt 200 OK 1732 0.002202
1360 /file008.txt 200 OK 1511 0.001683
1361 /file090.txt 200 OK 1249 0.001671
1362 /file020.txt 200 OK 1308 0.001113
1363 /file000.txt 200 OK 1389 0.001233
1364 /file073.txt 200 OK 1439 0.001042
1365 /file081.txt 200 OK 1821 0.001871
1366 /file000.txt 200 OK 1389 0.002169
1367 /file012.txt 200 OK 1293 0.002097
1368 /file011.txt 200 OK 1129 0.001652
1369 /file947.txt 200 OK 1876 0.002021
1370 /file003.txt 200 OK 1559 0.002193
1371 /file483.txt 200 OK 1215 0.001721
1372 /file021.txt 200 OK 1138 0.002147
1373 /file251.txt 200 OK 9026 0.002339
1374 /file338.txt 200 OK 1873 0.002052
1375 /file120.txt 200 OK 2801 0.001877
1376 /file000.txt 200 OK 1389 0.001408
1377 /file033.txt 200 OK 1618 0.001465
1378 /file024.txt 200 OK 1255 0.002154
1379 /file006.txt 200 OK 1188 0.001665
1380 /file105.txt 200 OK 1244 0.001429
1381 /file000.txt 200 OK 1389 0.001156
1382 /file211.txt 200 OK 1058 0.001117
1383 /file031.txt 200 OK 1533 0.001037
1384 /file004.txt 200 OK 1153 0.001012
1385 /file879.txt 200 OK 1552 0.001150
1386 /file007.txt 200 OK 1138 0.001080
1387 /file000.txt 200 OK 1389 0.001054
1388 /file379.txt 200 OK 1272 0.002141
1389 /file009.txt 200 OK 1323 0.001444
1390 /file000.txt 200 OK 1389 0.002230
1391 /file050.txt 200 OK 1122 0.001475
1392 /file004.txt 200 OK 1153 0.002306
1393 /file013.txt 200 OK 1063 0.002309
1394 /file198.txt 200 OK 1131 0.001398
1395 /file128.txt 200 OK 1369 0.002641
1396 /file429.txt 200 OK 1709 0.001529
1397 /file000.txt 200 OK 1389 0.002128
1398 /file912.txt 200 OK 1067 0.001758
