0 /file016.txt 200 OK 1286 0.002580
1 /file109.txt 200 OK 1628 0.001016
2 /file013.txt 200 OK 1063 0.002166
3 /file029.txt 200 OK 2454 0.002712
4 /file016.txt 200 OK 1286 0.002235
5 /file605.txt 200 OK 1410 0.001950
6 /file006.txt 200 OK 1188 0.001430
7 /file175.txt 200 OK 2182 0.002225
8 /file001.txt 200 OK 1477 0.001540
9 /file007.txt 200 OK 1138 0.001456
10 /file759.txt 200 OK 2281 0.002102
11 /file719.txt 200 OK 1497 0.001283
12 /file476.txt 200 OK 1027 0.001962
13 /file001.txt 200 OK 1477 0.001207
14 /file000.txt 200 OK 1389 0.001181
15 /file010.txt 200 OK 1423 0.002548
16 /file038.txt 200 OK 1627 0.001793
17 /file304.txt 610 <class 'httplib.BadStatusLine'>'' 0 0
18 /file002.txt 200 OK 1056 0.001104
19 /file065.txt 200 OK 1056 0.002035
20 /file000.txt 200 OK 1389 0.001183
21 /file789.txt 200 OK 2017 0.001359
22 /file120.txt 200 OK 2801 0.002612
23 /file024.txt 200 OK 1255 0.030389
24 /file046.txt 200 OK 2334 0.003233
25 /file006.txt 200 OK 1188 0.001579
26 /file007.txt 200 OK 1138 0.005915
27 /file167.txt 200 OK 8246 0.002172
28 /file440.txt 200 OK 1038 0.012750
29 /file003.txt 200 OK 1559 0.002539
30 /file506.txt 200 OK 1350 0.003157
31 /file174.txt 200 OK 1221 0.002346
32 /file022.txt 200 OK 1143 0.001478
33 /file001.txt 200 OK 1477 0.001087
34 /file353.txt 200 OK 1101 0.002262
35 /file158.txt 200 OK 1134 0.001648
36 /file000.txt 200 OK 1389 0.000913
37 /file047.txt 200 OK 1226 0.002492
38 /file005.txt 200 OK 1231 0.005314
39 /file072.txt 200 OK 1093 0.011756
40 /file038.txt 200 OK 1627 0.001134
41 /file000.txt 200 OK 1389 0.001091
42 /file001.txt 200 OK 1477 0.001121
43 /file122.txt 200 OK 1202 0.007188
44 /file009.txt 200 OK 1323 0.001358
45 /file010.txt 200 OK 1423 0.000983
46 /file057.txt 200 OK 2439 0.002644
47 /file019.txt 200 OK 1089 0.004146
48 /file106.txt 200 OK 2732 0.001454
49 /file221.txt 200 OK 1059 0.002802
50 /file000.txt 200 OK 1389 0.001733
51 /file003.txt 200 OK 1559 0.002457
52 /file001.txt 200 OK 1477 0.001704
53 /file000.txt 200 OK 1389 0.001195
54 /file666.txt 200 OK 4054 0.010300
55 /file031.txt 200 OK 1533 0.009069
56 /file006.txt 200 OK 1188 0.001279
57 /file001.txt 200 OK 1477 0.001293
58 /file003.txt 200 OK 1559 0.002600
59 /file002.txt 200 OK 1056 0.001705
60 /file593.txt 200 OK 4458 0.015157
61 /file865.txt 200 OK 1373 0.017584
62 /file003.txt 200 OK 1559 0.001971
63 /file001.txt 200 OK 1477 0.001805
64 /file009.txt 200 OK 1323 0.002573
65 /file003.txt 200 OK 1559 0.002180
66 /file622.txt 200 OK 1589 0.012122
67 /file036.txt 200 OK 1070 0.017083
68 /file000.txt 200 OK 1389 0.002182
69 /file004.txt 200 OK 1153 0.003385
70 /file060.txt 200 OK 1186 0.002451
71 /file261.txt 200 OK 1546 0.002764
72 /file086.txt 200 OK 1446 0.009900
73 /file130.txt 200 OK 1736 0.001309
74 /file838.txt 200 OK 1422 0.005993
75 /file056.txt 200 OK 1084 0.002788
76 /file224.txt 200 OK 1189 0.009903
77 /file441.txt 200 OK 1225 0.014947
78 /file137.txt 200 OK 1063 0.013788
79 /file024.txt 200 OK 1255 0.014467
80 /file009.txt 200 OK 1323 0.001523
81 /file002.txt 200 OK 1056 0.001465
82 /file307.txt 200 OK 1150 0.010206
83 /file003.txt 200 OK 1559 0.007905
84 /file063.txt 200 OK 1254 0.007088
85 /file044.txt 200 OK 1278 0.002336
86 /file000.txt 200 OK 1389 0.001476
87 /file358.txt 200 OK 1450 0.002518
88 /file002.txt 200 OK 1056 0.001794
89 /file016.txt 200 OK 1286 0.001306
90 /file352.txt 200 OK 1995 0.001436
91 /file000.txt 200 OK 1389 0.002246
92 /file000.txt 200 OK 1389 0.001766
93 /file000.txt 200 OK 1389 0.001536
94 /file060.txt 200 OK 1186 0.001233
95 /file038.txt 200 OK 1627 0.001229
96 /file001.txt 200 OK 1477 0.001037
97 /file044.txt 200 OK 1278 0.002551
98 /file686.txt 200 OK 1722 0.007346
99 /file009.txt 200 OK 1323 0.004468
100 /file000.txt 200 OK 1389 0.002125
101 /file307.txt 200 OK 1150 0.002246
102 /file530.txt 200 OK 2187 0.007218
103 /file527.txt 200 OK 2239 0.005888
104 /file140.txt 200 OK 2657 0.004025
105 /file007.txt 200 OK 1138 0.001788
106 /file000.txt 200 OK 1389 0.002378
107 /file033.txt 200 OK 1618 0.003536
108 /file062.txt 200 OK 2496 0.001813
109 /file019.txt 200 OK 1089 0.001441
110 /file002.txt 200 OK 1056 0.000934
111 /file483.txt 200 OK 1215 0.005784
112 /file045.txt 200 OK 1253 0.001510
113 /file028.txt 200 OK 1892 0.006988
114 /file174.txt 200 OK 1221 0.005609
115 /file000.txt 200 OK 1389 0.001840
116 /file002.txt 200 OK 1056 0.001819
117 /file000.txt 200 OK 1389 0.001516
118 /file406.txt 200 OK 1223 0.014512
119 /file004.txt 200 OK 1153 0.010267
120 /file412.txt 200 OK 1039 0.008209
121 /file609.txt 200 OK 1143 0.013176
122 /file000.txt 200 OK 1389 0.002457
123 /file173.txt 200 OK 1031 0.007383
124 /file615.txt 200 OK 1643 0.001659
125 /file000.txt 200 OK 1389 0.002397
126 /file002.txt 200 OK 1056 0.001620
127 /file081.txt 200 OK 1821 0.008961
128 /file161.txt 200 OK 1227 0.003491
129 /file504.txt 200 OK 1757 0.006613
130 /file145.txt 200 OK 1099 0.015715
131 /file000.txt 200 OK 1389 0.013762
132 /file829.txt 200 OK 1760 0.015150
133 /file022.txt 200 OK 1143 0.001527
134 /file009.txt 200 OK 1323 0.001226
135 /file001.txt 200 OK 1477 0.001254
136 /file002.txt 200 OK 1056 0.001061
137 /file479.txt 200 OK 1337 0.001377
138 /file003.txt 200 OK 1559 0.001309
139 /file003.txt 200 OK 1559 0.002262
140 /file001.txt 200 OK 1477 0.001553
141 /file000.txt 200 OK 1389 0.002194
142 /file001.txt 200 OK 1477 0.002327
143 /file008.txt 200 OK 1511 0.013440
144 /file026.txt 200 OK 1463 0.013535
145 /file000.txt 200 OK 1389 0.001443
146 /file000.txt 200 OK 1389 0.001174
147 /file912.txt 200 OK 1067 0.004495
148 /file007.txt 200 OK 1138 0.002518
149 /file003.txt 200 OK 1559 0.002265
150 /file041.txt 200 OK 1328 0.002974
151 /file004.txt 200 OK 1153 0.002264
152 /file005.txt 200 OK 1231 0.002154
153 /file140.txt 200 OK 2657 0.001872
154 /file183.txt 200 OK 1118 0.002499
155 /file003.txt 200 OK 1559 0.001695
156 /file000.txt 200 OK 1389 0.001268
157 /file000.txt 200 OK 1389 0.001158
158 /file055.txt 200 OK 1900 0.001468
159 /file289.txt 200 OK 1072 0.001111
160 /file676.txt 200 OK 1193 0.012442
161 /file098.txt 200 OK 1459 0.008534
162 /file019.txt 200 OK 1089 0.001204
163 /file441.txt 200 OK 1225 0.001523
164 /file024.txt 200 OK 1255 0.002095
165 /file149.txt 200 OK 1213 0.002519
166 /file854.txt 200 OK 1548 0.004527
167 /file000.txt 200 OK 1389 0.001783
168 /file650.txt 200 OK 1026 0.002116
169 /file153.txt 200 OK 2585 0.008966
170 /file000.txt 200 OK 1389 0.001481
171 /file061.txt 200 OK 1425 0.002587
172 /file019.txt 200 OK 1089 0.001962
173 /file177.txt 200 OK 1613 0.009227
174 /file384.txt 200 OK 1120 0.008526
175 /file093.txt 200 OK 1626 0.004529
176 /file001.txt 200 OK 1477 0.003432
177 /file021.txt 200 OK 1138 0.002731
178 /file062.txt 200 OK 2496 0.001471
179 /file006.txt 200 OK 1188 0.002223
180 /file915.txt 200 OK 2188 0.001843
181 /file010.txt 200 OK 1423 0.001298
182 /file001.txt 200 OK 1477 0.001035
183 /file300.txt 200 OK 1122 0.004661
184 /file150.txt 200 OK 2143 0.002077
185 /file015.txt 200 OK 1337 0.009618
186 /file000.txt 200 OK 1389 0.001092
187 /file015.txt 200 OK 1337 0.002336
188 /file004.txt 200 OK 1153 0.002100
189 /file015.txt 200 OK 1337 0.002281
190 /file028.txt 200 OK 1892 0.001782
191 /file018.txt 200 OK 2502 0.005650
192 /file068.txt 200 OK 1727 0.002342
193 /file000.txt 200 OK 1389 0.001767
194 /file000.txt 200 OK 1389 0.001523
195 /file484.txt 200 OK 1333 0.013108
196 /file726.txt 200 OK 1108 0.007015
197 /file291.txt 200 OK 1042 0.001844
198 /file002.txt 200 OK 1056 0.001368
199 /file001.txt 200 OK 1477 0.002032
200 /file027.txt 200 OK 1498 0.002588
201 /file009.txt 200 OK 1323 0.002397
202 /file088.txt 200 OK 1135 0.008494
203 /file039.txt 200 OK 2044 0.002822
204 /file000.txt 200 OK 1389 0.001567
205 /file000.txt 200 OK 1389 0.001777
206 /file009.txt 200 OK 1323 0.002000
207 /file000.txt 200 OK 1389 0.002009
208 /file003.txt 200 OK 1559 0.001134
209 /file001.txt 200 OK 1477 0.002211
210 /file614.txt 200 OK 1358 0.002455
211 /file008.txt 200 OK 1511 0.002301
212 /file007.txt 200 OK 1138 0.002088
213 /file012.txt 200 OK 1293 0.011251
214 /file009.txt 200 OK 1323 0.005813
215 /file032.txt 200 OK 1307 0.002632
216 /file163.txt 200 OK 1350 0.010261
217 /file085.txt 200 OK 1598 0.006802
218 /file014.txt 200 OK 1113 0.002675
219 /file022.txt 200 OK 1143 0.001745
220 /file007.txt 200 OK 1138 0.002315
221 /file010.txt 200 OK 1423 0.002437
222 /file010.txt 200 OK 1423 0.001464
223 /file001.txt 200 OK 1477 0.002229
224 /file110.txt 200 OK 1391 0.012552
225 /file251.txt 200 OK 9026 0.014694
226 /file156.txt 200 OK 4903 0.009620
227 /file483.txt 200 OK 1215 0.001763
228 /file259.txt 200 OK 1308 0.002483
229 /file007.txt 200 OK 1138 0.002391
230 /file448.txt 200 OK 1381 0.008422
231 /file323.txt 200 OK 2001 0.010603
232 /file040.txt 200 OK 1049 0.002624
233 /file597.txt 200 OK 1386 0.002146
234 /file069.txt 200 OK 1391 0.001542
235 /file003.txt 200 OK 1559 0.001050
236 /file005.txt 200 OK 1231 0.002143
237 /file024.txt 200 OK 1255 0.001809
238 /file002.txt 200 OK 1056 0.001813
239 /file018.txt 200 OK 2502 0.001510
240 /file007.txt 200 OK 1138 0.001479
241 /file063.txt 200 OK 1254 0.001228
242 /file002.txt 200 OK 1056 0.001116
243 /file004.txt 200 OK 1153 0.001166
244 /file004.txt 200 OK 1153 0.001813
245 /file046.txt 200 OK 2334 0.002008
246 /file006.txt 200 OK 1188 0.002573
247 /file058.txt 200 OK 1087 0.031611
248 /file020.txt 200 OK 1308 0.008590
249 /file011.txt 200 OK 1129 0.010840
250 /file113.txt 200 OK 1066 0.004222
251 /file129.txt 200 OK 1381 0.002590
252 /file006.txt 200 OK 1188 0.002032
253 /file978.txt 200 OK 1608 0.020455
254 /file042.txt 200 OK 1047 0.015108
255 /file000.txt 200 OK 1389 0.005119
256 /file017.txt 200 OK 1781 0.002724
257 /file000.txt 200 OK 1389 0.001505
258 /file034.txt 200 OK 1434 0.001727
259 /file066.txt 200 OK 1462 0.011814
260 /file010.txt 200 OK 1423 0.001376
261 /file069.txt 200 OK 1391 0.001525
262 /file042.txt 200 OK 1047 0.002451
263 /file039.txt 200 OK 2044 0.001247
264 /file192.txt 200 OK 1732 0.007333
265 /file000.txt 200 OK 1389 0.007473
266 /file039.txt 610 <class 'httplib.BadStatusLine'>'' 0 0
267 /file000.txt 200 OK 1389 0.002194
268 /file032.txt 200 OK 1307 0.002290
269 /file000.txt 200 OK 1389 0.001418
270 /file000.txt 200 OK 1389 0.001463
271 /file217.txt 200 OK 1060 0.004567
272 /file340.txt 200 OK 1262 0.002256
273 /file054.txt 200 OK 1104 0.002563
274 /file154.txt 200 OK 1168 0.002104
275 /file000.txt 200 OK 1389 0.001173
276 /file000.txt 200 OK 1389 0.001243
277 /file739.txt 200 OK 1802 0.002179
278 /file033.txt 200 OK 1618 0.002217
279 /file145.txt 200 OK 1099 0.001599
280 /file000.txt 200 OK 1389 0.001911
281 /file130.txt 200 OK 1736 0.001477
282 /file082.txt 200 OK 2211 0.041563
285 /file000.txt 200 OK 1389 0.022258
284 /file010.txt 200 OK 1423 0.024501
283 /file002.txt 200 OK 1056 0.030945
286 /file009.txt 200 OK 1323 0.008772
287 /file240.txt 200 OK 1733 0.001460
288 /file496.txt 200 OK 1031 0.008227
289 /file005.txt 200 OK 1231 0.005238
290 /file062.txt 200 OK 2496 0.002373
291 /file006.txt 200 OK 1188 0.001711
292 /file277.txt 200 OK 2002 0.001694
293 /file043.txt 200 OK 1647 0.002588
294 /file147.txt 200 OK 2046 0.002722
295 /file000.txt 200 OK 1389 0.002259
296 /file835.txt 200 OK 1092 0.006732
297 /file006.txt 200 OK 1188 0.002346
298 /file006.txt 200 OK 1188 0.002529
299 /file089.txt 200 OK 1059 0.002472
300 /file133.txt 200 OK 1055 0.011003
301 /file005.txt 200 OK 1231 0.002104
302 /file141.txt 200 OK 1218 0.002404
303 /file000.txt 200 OK 1389 0.003069
304 /file034.txt 200 OK 1434 0.001568
305 /file331.txt 200 OK 1183 0.002304
306 /file000.txt 200 OK 1389 0.001564
307 /file118.txt 200 OK 1471 0.007185
308 /file036.txt 200 OK 1070 0.002167
309 /file269.txt 200 OK 1287 0.002610
310 /file134.txt 200 OK 2484 0.002416
311 /file001.txt 200 OK 1477 0.001470
312 /file000.txt 200 OK 1389 0.002284
313 /file039.txt 200 OK 2044 0.002257
314 /file433.txt 200 OK 1032 0.014858
315 /file021.txt 200 OK 1138 0.007724
316 /file308.txt 200 OK 1240 0.016353
317 /file119.txt 200 OK 1294 0.013298
318 /file015.txt 200 OK 1337 0.005408
319 /file767.txt 200 OK 1640 0.002618
320 /file271.txt 200 OK 1136 0.001970
321 /file013.txt 200 OK 1063 0.001179
322 /file013.txt 200 OK 1063 0.001449
323 /file088.txt 200 OK 1135 0.002080
324 /file000.txt 200 OK 1389 0.001775
325 /file001.txt 200 OK 1477 0.002387
326 /file031.txt 200 OK 1533 0.001558
327 /file002.txt 200 OK 1056 0.002259
328 /file027.txt 200 OK 1498 0.002320
329 /file001.txt 200 OK 1477 0.002347
330 /file436.txt 200 OK 1200 0.002395
331 /file026.txt 200 OK 1463 0.002028
332 /file003.txt 200 OK 1559 0.001681
333 /file414.txt 200 OK 1113 0.002880
334 /file000.txt 200 OK 1389 0.001986
335 /file020.txt 200 OK 1308 0.001237
336 /file039.txt 200 OK 2044 0.002231
337 /file079.txt 200 OK 1760 0.018943
338 /file061.txt 200 OK 1425 0.013520
339 /file000.txt 200 OK 1389 0.003156
340 /file307.txt 200 OK 1150 0.001275
341 /file000.txt 200 OK 1389 0.002478
342 /file112.txt 200 OK 2826 0.002062
343 /file321.txt 200 OK 1859 0.002552
344 /file266.txt 200 OK 1795 0.001927
345 /file239.txt 200 OK 1320 0.002573
346 /file067.txt 200 OK 1904 0.002882
347 /file453.txt 200 OK 1353 0.001680
348 /file052.txt 200 OK 1203 0.001561
349 /file095.txt 200 OK 1434 0.010740
350 /file097.txt 200 OK 1083 0.005671
351 /file000.txt 200 OK 1389 0.001330
352 /file233.txt 200 OK 1304 0.002558
353 /file007.txt 200 OK 1138 0.001852
354 /file039.txt 200 OK 2044 0.001522
355 /file010.txt 200 OK 1423 0.002195
356 /file024.txt 200 OK 1255 0.001744
357 /file003.txt 200 OK 1559 0.001493
358 /file440.txt 200 OK 1038 0.002530
359 /file070.txt 200 OK 1332 0.025245
360 /file000.txt 200 OK 1389 0.013106
361 /file001.txt 200 OK 1477 0.002496
362 /file000.txt 200 OK 1389 0.001891
363 /file533.txt 200 OK 1443 0.001927
364 /file095.txt 200 OK 1434 0.001390
365 /file149.txt 200 OK 1213 0.002016
366 /file004.txt 200 OK 1153 0.001535
367 /file000.txt 200 OK 1389 0.001833
368 /file028.txt 200 OK 1892 0.001941
369 /file002.txt 200 OK 1056 0.001804
370 /file001.txt 200 OK 1477 0.001959
371 /file230.txt 200 OK 1260 0.003512
372 /file006.txt 200 OK 1188 0.001412
373 /file001.txt 200 OK 1477 0.001469
374 /file005.txt 200 OK 1231 0.002244
375 /file005.txt 200 OK 1231 0.002194
376 /file015.txt 200 OK 1337 0.001747
377 /file012.txt 200 OK 1293 0.001564
378 /file000.txt 200 OK 1389 0.001501
379 /file290.txt 200 OK 1105 0.001384
380 /file020.txt 200 OK 1308 0.002151
381 /file000.txt 200 OK 1389 0.001763
382 /file579.txt 200 OK 1647 0.038023
384 /file119.txt 200 OK 1294 0.022891
383 /file031.txt 200 OK 1533 0.038568
385 /file144.txt 200 OK 1530 0.010549
386 /file204.txt 200 OK 1039 0.010240
387 /file283.txt 200 OK 1290 0.012920
388 /file000.txt 200 OK 1389 0.001092
389 /file085.txt 200 OK 1598 0.002374
390 /file015.txt 200 OK 1337 0.001676
391 /file422.txt 200 OK 1498 0.007625
392 /file003.txt 200 OK 1559 0.001544
393 /file001.txt 200 OK 1477 0.001256
394 /file044.txt 200 OK 1278 0.001541
395 /file029.txt 200 OK 2454 0.001447
396 /file000.txt 200 OK 1389 0.002906
397 /file001.txt 200 OK 1477 0.001894
398 /file017.txt 200 OK 1781 0.002507
399 /file004.txt 200 OK 1153 0.001490
400 /file000.txt 200 OK 1389 0.002219
401 /file223.txt 200 OK 1970 0.002157
402 /file000.txt 200 OK 1389 0.002055
403 /file051.txt 200 OK 1366 0.002664
404 /file082.txt 200 OK 2211 0.002095
405 /file011.txt 200 OK 1129 0.001568
406 /file000.txt 200 OK 1389 0.001969
407 /file037.txt 200 OK 1351 0.002583
408 /file023.txt 200 OK 1164 0.002096
409 /file000.txt 200 OK 1389 0.001481
410 /file000.txt 200 OK 1389 0.002110
411 /file067.txt 200 OK 1904 0.001764
412 /file001.txt 200 OK 1477 0.002205
413 /file213.txt 200 OK 1029 0.001861
414 /file001.txt 200 OK 1477 0.001567
415 /file043.txt 200 OK 1647 0.002019
416 /file001.txt 200 OK 1477 0.002330
417 /file177.txt 200 OK 1613 0.002154
418 /file004.txt 200 OK 1153 0.001783
419 /file015.txt 200 OK 1337 0.002250
420 /file059.txt 200 OK 1134 0.002706
421 /file002.txt 200 OK 1056 0.001645
422 /file316.txt 200 OK 1629 0.014661
423 /file163.txt 200 OK 1350 0.002297
424 /file047.txt 200 OK 1226 0.001473
425 /file019.txt 200 OK 1089 0.001361
426 /file051.txt 200 OK 1366 0.001067
427 /file254.txt 200 OK 1522 0.002270
428 /file260.txt 200 OK 1352 0.002108
429 /file001.txt 200 OK 1477 0.001456
430 /file001.txt 200 OK 1477 0.001705
431 /file000.txt 200 OK 1389 0.001053
432 /file182.txt 200 OK 1310 0.011582
433 /file162.txt 200 OK 1137 0.002130
434 /file168.txt 200 OK 1597 0.002164
435 /file055.txt 200 OK 1900 0.002442
436 /file077.txt 200 OK 1443 0.002029
437 /file132.txt 200 OK 2068 0.012483
438 /file012.txt 200 OK 1293 0.004197
439 /file007.txt 200 OK 1138 0.001894
440 /file002.txt 200 OK 1056 0.001601
441 /file750.txt 200 OK 1271 0.007142
442 /file000.txt 200 OK 1389 0.003063
443 /file078.txt 200 OK 1296 0.002557
444 /file584.txt 200 OK 1088 0.003962
445 /file137.txt 200 OK 1063 0.002227
446 /file085.txt 200 OK 1598 0.001712
447 /file174.txt 200 OK 1221 0.001661
448 /file073.txt 200 OK 1439 0.001329
449 /file077.txt 200 OK 1443 0.001153
450 /file000.txt 200 OK 1389 0.001055
451 /file003.txt 200 OK 1559 0.002172
452 /file000.txt 200 OK 1389 0.001628
453 /file001.txt 200 OK 1477 0.002297
454 /file112.txt 200 OK 2826 0.002152
455 /file000.txt 200 OK 1389 0.001888
456 /file004.txt 200 OK 1153 0.002236
457 /file025.txt 200 OK 1133 0.002095
458 /file000.txt 200 OK 1389 0.002323
459 /file017.txt 200 OK 1781 0.001749
460 /file037.txt 200 OK 1351 0.001454
461 /file009.txt 200 OK 1323 0.001483
462 /file007.txt 200 OK 1138 0.001256
463 /file038.txt 200 OK 1627 0.001045
464 /file645.txt 200 OK 1316 0.015224
465 /file000.txt 200 OK 1389 0.001850
466 /file139.txt 200 OK 1054 0.002142
467 /file713.txt 200 OK 1470 0.001759
468 /file067.txt 200 OK 1904 0.001135
469 /file042.txt 200 OK 1047 0.001030
470 /file023.txt 200 OK 1164 0.000913
471 /file039.txt 200 OK 2044 0.002311
472 /file003.txt 200 OK 1559 0.001764
473 /file031.txt 200 OK 1533 0.002147
474 /file003.txt 200 OK 1559 0.002027
475 /file000.txt 200 OK 1389 0.002217
476 /file000.txt 200 OK 1389 0.002102
477 /file002.txt 200 OK 1056 0.001844
478 /file411.txt 200 OK 1345 0.036869
479 /file043.txt 200 OK 1647 0.030981
480 /file000.txt 200 OK 1389 0.026701
481 /file777.txt 200 OK 1523 0.042918
482 /file001.txt 200 OK 1477 0.017789
483 /file041.txt 200 OK 1328 0.004967
484 /file151.txt 200 OK 1986 0.014128
485 /file001.txt 200 OK 1477 0.002135
486 /file021.txt 200 OK 1138 0.001584
487 /file250.txt 200 OK 1673 0.002643
488 /file169.txt 200 OK 1136 0.002016
489 /file204.txt 200 OK 1039 0.001499
490 /file021.txt 200 OK 1138 0.002234
491 /file004.txt 200 OK 1153 0.001811
492 /file000.txt 200 OK 1389 0.001522
493 /file020.txt 200 OK 1308 0.001146
494 /file593.txt 200 OK 4458 0.001290
495 /file013.txt 200 OK 1063 0.002336
496 /file096.txt 200 OK 2264 0.022753
497 /file003.txt 200 OK 1559 0.002351
498 /file002.txt 200 OK 1056 0.001558
499 /file000.txt 200 OK 1389 0.002325
500 /file620.txt 200 OK 1106 0.008923
501 /file008.txt 200 OK 1511 0.001912
502 /file003.txt 200 OK 1559 0.001569
503 /file069.txt 200 OK 1391 0.001223
504 /file003.txt 610 <class 'httplib.BadStatusLine'>'' 0 0
505 /file052.txt 200 OK 1203 0.001465
506 /file129.txt 200 OK 1381 0.002332
507 /file000.txt 200 OK 1389 0.002591
508 /file009.txt 200 OK 1323 0.001758
509 /file002.txt 200 OK 1056 0.001456
510 /file004.txt 200 OK 1153 0.002267
511 /file626.txt 200 OK 1047 0.002193
512 /file848.txt 200 OK 1052 0.030013
513 /file014.txt 200 OK 1113 0.001833
514 /file062.txt 200 OK 2496 0.001707
515 /file008.txt 200 OK 1511 0.001202
516 /file995.txt 200 OK 1327 0.001464
517 /file150.txt 200 OK 2143 0.002048
518 /file231.txt 200 OK 2537 0.016168
519 /file669.txt 200 OK 1039 0.010771
520 /file070.txt 200 OK 1332 0.001752
521 /file005.txt 200 OK 1231 0.001347
522 /file000.txt 200 OK 1389 0.001166
523 /file214.txt 200 OK 1337 0.002664
524 /file430.txt 200 OK 1143 0.015785
525 /file128.txt 200 OK 1369 0.013985
526 /file241.txt 200 OK 1211 0.006459
527 /file011.txt 200 OK 1129 0.006158
528 /file024.txt 200 OK 1255 0.002354
529 /file865.txt 200 OK 1373 0.001797
530 /file057.txt 200 OK 2439 0.001218
531 /file001.txt 200 OK 1477 0.001490
532 /file735.txt 200 OK 1144 0.013014
533 /file014.txt 200 OK 1113 0.002148
534 /file937.txt 200 OK 1262 0.013371
535 /file088.txt 200 OK 1135 0.002770
536 /file379.txt 200 OK 1272 0.008665
537 /file007.txt 200 OK 1138 0.001815
538 /file001.txt 200 OK 1477 0.001540
539 /file000.txt 200 OK 1389 0.001264
540 /file004.txt 200 OK 1153 0.002123
541 /file001.txt 200 OK 1477 0.002669
542 /file002.txt 200 OK 1056 0.002176
543 /file236.txt 200 OK 1070 0.007326
544 /file004.txt 200 OK 1153 0.005066
545 /file001.txt 200 OK 1477 0.004752
546 /file113.txt 200 OK 1066 0.001875
547 /file028.txt 200 OK 1892 0.001518
548 /file000.txt 200 OK 1389 0.001142
549 /file001.txt 200 OK 1477 0.001856
550 /file466.txt 200 OK 1363 0.001988
551 /file033.txt 200 OK 1618 0.002264
552 /file031.txt 200 OK 1533 0.001822
553 /file178.txt 200 OK 1184 0.009714
554 /file000.txt 200 OK 1389 0.002059
555 /file002.txt 200 OK 1056 0.001425
556 /file004.txt 200 OK 1153 0.001491
557 /file014.txt 200 OK 1113 0.001300
558 /file035.txt 200 OK 2066 0.001582
559 /file003.txt 200 OK 1559 0.001084
560 /file082.txt 200 OK 2211 0.002381
561 /file020.txt 200 OK 1308 0.001944
562 /file066.txt 200 OK 1462 0.002461
563 /file005.txt 200 OK 1231 0.002275
564 /file548.txt 200 OK 1109 0.033650
566 /file000.txt 200 OK 1389 0.018919
565 /file012.txt 200 OK 1293 0.025923
567 /file000.txt 200 OK 1389 0.014558
568 /file031.txt 200 OK 1533 0.002002
569 /file913.txt 200 OK 1068 0.002827
570 /file022.txt 200 OK 1143 0.002261
571 /file001.txt 200 OK 1477 0.002477
572 /file005.txt 200 OK 1231 0.002288
573 /file000.txt 200 OK 1389 0.002536
574 /file003.txt 200 OK 1559 0.002221
575 /file001.txt 200 OK 1477 0.001620
576 /file000.txt 200 OK 1389 0.002078
577 /file008.txt 200 OK 1511 0.002328
578 /file202.txt 200 OK 1346 0.002034
579 /file001.txt 200 OK 1477 0.001274
580 /file000.txt 200 OK 1389 0.001050
581 /file013.txt 200 OK 1063 0.001158
582 /file120.txt 200 OK 2801 0.002030
583 /file023.txt 200 OK 1164 0.001624
584 /file047.txt 200 OK 1226 0.001332
585 /file125.txt 200 OK 1056 0.031870
586 /file004.txt 200 OK 1153 0.031691
588 /file000.txt 200 OK 1389 0.038373
587 /file761.txt 200 OK 1139 0.040368
589 /file217.txt 200 OK 1060 0.028378
590 /file000.txt 200 OK 1389 0.002322
591 /file152.txt 200 OK 1040 0.015156
592 /file136.txt 200 OK 1307 0.011391
593 /file084.txt 200 OK 2230 0.013054
594 /file376.txt 200 OK 1106 0.001352
595 /file001.txt 200 OK 1477 0.002254
596 /file024.txt 200 OK 1255 0.001666
597 /file646.txt 200 OK 1633 0.001575
598 /file370.txt 200 OK 1041 0.004824
599 /file202.txt 200 OK 1346 0.001466
600 /file056.txt 200 OK 1084 0.002605
601 /file138.txt 200 OK 1321 0.001911
602 /file000.txt 200 OK 1389 0.001514
603 /file074.txt 200 OK 2146 0.004963
604 /file000.txt 200 OK 1389 0.002290
605 /file450.txt 200 OK 1488 0.009896
606 /file031.txt 200 OK 1533 0.002103
607 /file436.txt 200 OK 1200 0.002223
608 /file205.txt 200 OK 1047 0.014211
609 /file000.txt 200 OK 1389 0.001974
610 /file154.txt 200 OK 1168 0.002176
611 /file008.txt 200 OK 1511 0.001839
612 /file194.txt 200 OK 1812 0.001789
613 /file038.txt 200 OK 1627 0.002271
614 /file662.txt 200 OK 1305 0.002125
615 /file296.txt 200 OK 1197 0.001846
616 /file130.txt 200 OK 1736 0.001286
617 /file000.txt 200 OK 1389 0.001214
618 /file001.txt 200 OK 1477 0.002066
619 /file152.txt 200 OK 1040 0.001889
620 /file031.txt 200 OK 1533 0.001557
621 /file025.txt 200 OK 1133 0.001240
622 /file126.txt 200 OK 1027 0.017687
623 /file000.txt 200 OK 1389 0.012456
624 /file003.txt 200 OK 1559 0.004552
625 /file017.txt 200 OK 1781 0.001989
626 /file162.txt 200 OK 1137 0.001218
627 /file000.txt 200 OK 1389 0.002304
628 /file006.txt 200 OK 1188 0.002007
629 /file072.txt 200 OK 1093 0.002251
630 /file038.txt 200 OK 1627 0.001855
631 /file086.txt 200 OK 1446 0.001708
632 /file038.txt 200 OK 1627 0.002384
633 /file424.txt 200 OK 1327 0.011190
634 /file773.txt 200 OK 2544 0.017044
635 /file010.txt 200 OK 1423 0.008936
636 /file000.txt 200 OK 1389 0.001964
637 /file000.txt 200 OK 1389 0.002129
638 /file463.txt 200 OK 1519 0.002768
639 /file001.txt 200 OK 1477 0.001776
640 /file006.txt 200 OK 1188 0.001754
641 /file020.txt 200 OK 1308 0.001469
642 /file102.txt 200 OK 2006 0.012051
643 /file006.txt 200 OK 1188 0.002106
644 /file004.txt 200 OK 1153 0.002344
645 /file000.txt 200 OK 1389 0.001253
646 /file002.txt 200 OK 1056 0.001316
647 /file000.txt 200 OK 1389 0.001094
648 /file200.txt 200 OK 2077 0.012349
649 /file008.txt 200 OK 1511 0.002772
650 /file462.txt 200 OK 1611 0.001814
651 /file011.txt 200 OK 1129 0.001341
652 /file118.txt 200 OK 1471 0.001122
653 /file001.txt 200 OK 1477 0.001940
654 /file000.txt 200 OK 1389 0.002502
655 /file972.txt 200 OK 1599 0.011516
656 /file009.txt 200 OK 1323 0.009893
657 /file001.txt 200 OK 1477 0.001593
658 /file010.txt 200 OK 1423 0.001546
659 /file367.txt 200 OK 1117 0.008968
660 /file007.txt 200 OK 1138 0.003504
661 /file027.txt 200 OK 1498 0.001246
662 /file010.txt 200 OK 1423 0.001809
663 /file367.txt 200 OK 1117 0.002495
664 /file000.txt 200 OK 1389 0.002548
665 /file000.txt 200 OK 1389 0.002003
666 /file685.txt 200 OK 1216 0.006234
667 /file012.txt 200 OK 1293 0.001383
668 /file003.txt 200 OK 1559 0.001232
669 /file000.txt 200 OK 1389 0.000853
670 /file218.txt 200 OK 1515 0.001392
671 /file480.txt 200 OK 1266 0.002146
672 /file334.txt 200 OK 1389 0.006610
673 /file004.txt 200 OK 1153 0.002114
674 /file006.txt 200 OK 1188 0.002123
675 /file491.txt 200 OK 1269 0.002448
676 /file399.txt 200 OK 1205 0.010967
677 /file004.txt 200 OK 1153 0.005373
678 /file432.txt 200 OK 1099 0.003911
679 /file081.txt 200 OK 1821 0.001379
680 /file020.txt 200 OK 1308 0.002135
681 /file001.txt 200 OK 1477 0.001824
682 /file009.txt 200 OK 1323 0.001799
683 /file002.txt 200 OK 1056 0.001455
684 /file001.txt 200 OK 1477 0.001224
685 /file006.txt 200 OK 1188 0.002226
686 /file004.txt 200 OK 1153 0.001568
687 /file302.txt 200 OK 1357 0.010543
688 /file168.txt 200 OK 1597 0.009615
689 /file000.txt 200 OK 1389 0.001106
690 /file004.txt 200 OK 1153 0.002176
691 /file009.txt 200 OK 1323 0.002222
692 /file000.txt 200 OK 1389 0.002174
693 /file001.txt 200 OK 1477 0.002555
694 /file340.txt 200 OK 1262 0.001552
695 /file373.txt 200 OK 1807 0.002060
696 /file387.txt 200 OK 1101 0.001262
697 /file001.txt 200 OK 1477 0.001200
698 /file459.txt 200 OK 1104 0.001434
699 /file000.txt 200 OK 1389 0.001126
700 /file072.txt 200 OK 1093 0.002500
701 /file038.txt 200 OK 1627 0.001766
702 /file000.txt 200 OK 1389 0.002427
703 /file000.txt 200 OK 1389 0.002337
704 /file007.txt 200 OK 1138 0.001719
705 /file001.txt 200 OK 1477 0.001295
706 /file036.txt 200 OK 1070 0.001713
707 /file144.txt 200 OK 1530 0.002444
708 /file001.txt 200 OK 1477 0.001943
709 /file004.txt 200 OK 1153 0.001817
710 /file010.txt 200 OK 1423 0.001830
711 /file610.txt 200 OK 1127 0.041936
712 /file000.txt 200 OK 1389 0.001886
713 /file009.txt 200 OK 1323 0.001649
714 /file094.txt 200 OK 1666 0.013854
715 /file110.txt 200 OK 1391 0.001767
716 /file000.txt 200 OK 1389 0.001997
717 /file133.txt 200 OK 1055 0.001936
718 /file156.txt 200 OK 4903 0.002065
719 /file712.txt 200 OK 1192 0.001917
720 /file699.txt 200 OK 2184 0.002648
721 /file000.txt 200 OK 1389 0.002194
722 /file001.txt 200 OK 1477 0.002240
723 /file459.txt 200 OK 1104 0.002669
724 /file071.txt 200 OK 1141 0.005160
725 /file271.txt 200 OK 1136 0.001612
726 /file002.txt 200 OK 1056 0.002199
727 /file220.txt 200 OK 1881 0.002584
728 /file430.txt 200 OK 1143 0.001429
729 /file028.txt 200 OK 1892 0.001713
730 /file000.txt 200 OK 1389 0.001133
731 /file027.txt 200 OK 1498 0.002310
732 /file041.txt 200 OK 1328 0.002167
733 /file000.txt 200 OK 1389 0.001505
734 /file159.txt 200 OK 1464 0.001565
735 /file003.txt 200 OK 1559 0.001087
736 /file008.txt 200 OK 1511 0.002161
737 /file962.txt 200 OK 1230 0.001838
738 /file016.txt 200 OK 1286 0.002312
739 /file000.txt 200 OK 1389 0.002162
740 /file604.txt 200 OK 1352 0.002351
741 /file010.txt 200 OK 1423 0.002339
742 /file082.txt 200 OK 2211 0.002125
743 /file004.txt 200 OK 1153 0.002250
744 /file139.txt 200 OK 1054 0.002260
745 /file187.txt 200 OK 1724 0.032072
746 /file388.txt 200 OK 1466 0.026264
747 /file066.txt 200 OK 1462 0.018315
748 /file019.txt 610 <class 'httplib.BadStatusLine'>'' 0 0
749 /file026.txt 200 OK 1463 0.002164
750 /file002.txt 200 OK 1056 0.002077
751 /file033.txt 200 OK 1618 0.001737
752 /file000.txt 200 OK 1389 0.001974
753 /file467.txt 200 OK 4893 0.002721
754 /file005.txt 200 OK 1231 0.001890
755 /file103.txt 200 OK 3262 0.001773
756 /file011.txt 200 OK 1129 0.002094
757 /file006.txt 200 OK 1188 0.001627
758 /file128.txt 200 OK 1369 0.001141
759 /file051.txt 200 OK 1366 0.001273
760 /file012.txt 200 OK 1293 0.002252
761 /file323.txt 200 OK 2001 0.002152
762 /file951.txt 200 OK 1068 0.020074
763 /file073.txt 200 OK 1439 0.014547
764 /file214.txt 200 OK 1337 0.012733
765 /file005.txt 200 OK 1231 0.001306
766 /file000.txt 200 OK 1389 0.001086
767 /file248.txt 200 OK 1033 0.002212
768 /file019.txt 200 OK 1089 0.001846
769 /file784.txt 200 OK 1160 0.002569
770 /file260.txt 200 OK 1352 0.001894
771 /file007.txt 200 OK 1138 0.001262
772 /file062.txt 200 OK 2496 0.002451
773 /file548.txt 200 OK 1109 0.002403
774 /file082.txt 200 OK 2211 0.001413
775 /file003.txt 200 OK 1559 0.002343
776 /file001.txt 200 OK 1477 0.005534
777 /file000.txt 200 OK 1389 0.001026
778 /file270.txt 200 OK 1113 0.021640
779 /file002.txt 200 OK 1056 0.004164
780 /file001.txt 200 OK 1477 0.001043
781 /file016.txt 200 OK 1286 0.002129
782 /file115.txt 200 OK 1840 0.020097
783 /file197.txt 200 OK 3377 0.018658
784 /file365.txt 200 OK 1211 0.001630
785 /file145.txt 200 OK 1099 0.001295
786 /file072.txt 200 OK 1093 0.002221
787 /file008.txt 200 OK 1511 0.002008
788 /file003.txt 200 OK 1559 0.002170
789 /file001.txt 200 OK 1477 0.001875
790 /file003.txt 200 OK 1559 0.001810
791 /file002.txt 200 OK 1056 0.001163
792 /file053.txt 200 OK 1046 0.018210
793 /file008.txt 200 OK 1511 0.001944
794 /file009.txt 200 OK 1323 0.001628
795 /file060.txt 200 OK 1186 0.002264
796 /file001.txt 200 OK 1477 0.002122
797 /file000.txt 200 OK 1389 0.001595
798 /file011.txt 200 OK 1129 0.001902
799 /file007.txt 200 OK 1138 0.001182
800 /file194.txt 200 OK 1812 0.001800
801 /file187.txt 200 OK 1724 0.001550
802 /file002.txt 200 OK 1056 0.002188
803 /file003.txt 200 OK 1559 0.001586
804 /file247.txt 200 OK 1093 0.070384
805 /file032.txt 200 OK 1307 0.046244
806 /file054.txt 200 OK 1104 0.039346
807 /file007.txt 200 OK 1138 0.033724
808 /file091.txt 200 OK 2008 0.057426
809 /file042.txt 200 OK 1047 0.041735
810 /file000.txt 200 OK 1389 0.026621
811 /file934.txt 200 OK 1566 0.012060
812 /file459.txt 200 OK 1104 0.001830
813 /file002.txt 200 OK 1056 0.002068
814 /file462.txt 200 OK 1611 0.002254
815 /file009.txt 200 OK 1323 0.001953
816 /file014.txt 200 OK 1113 0.001266
817 /file013.txt 200 OK 1063 0.001452
818 /file100.txt 200 OK 1851 0.046243
819 /file436.txt 200 OK 1200 0.012412
820 /file000.txt 200 OK 1389 0.001527
821 /file099.txt 200 OK 1230 0.016735
822 /file003.txt 200 OK 1559 0.002031
823 /file034.txt 200 OK 1434 0.001450
824 /file005.txt 200 OK 1231 0.004516
825 /file419.txt 200 OK 1598 0.038075
828 /file025.txt 200 OK 1133 0.020707
827 /file001.txt 200 OK 1477 0.026305
826 /file022.txt 200 OK 1143 0.028458
829 /file301.txt 200 OK 2717 0.036129
830 /file001.txt 200 OK 1477 0.026238
831 /file019.txt 200 OK 1089 0.024057
832 /file037.txt 200 OK 1351 0.016141
833 /file320.txt 200 OK 1461 0.028284
834 /file121.txt 200 OK 1358 0.008337
835 /file060.txt 200 OK 1186 0.002126
836 /file062.txt 200 OK 2496 0.001801
837 /file020.txt 200 OK 1308 0.002325
838 /file363.txt 200 OK 2353 0.002494
839 /file008.txt 200 OK 1511 0.001630
840 /file067.txt 200 OK 1904 0.001653
841 /file139.txt 200 OK 1054 0.001202
842 /file281.txt 200 OK 1340 0.011445
843 /file002.txt 200 OK 1056 0.000972
844 /file006.txt 200 OK 1188 0.001102
845 /file014.txt 200 OK 1113 0.002285
846 /file001.txt 200 OK 1477 0.001968
847 /file723.txt 200 OK 1123 0.014220
848 /file026.txt 200 OK 1463 0.008840
849 /file018.txt 200 OK 2502 0.001453
850 /file039.txt 200 OK 2044 0.000867
851 /file351.txt 200 OK 1629 0.003037
852 /file258.txt 200 OK 1268 0.012462
853 /file199.txt 200 OK 1038 0.010156
854 /file001.txt 200 OK 1477 0.005149
855 /file000.txt 200 OK 1389 0.003290
856 /file002.txt 200 OK 1056 0.001260
857 /file076.txt 200 OK 1201 0.001453
858 /file003.txt 200 OK 1559 0.002025
859 /file030.txt 200 OK 1582 0.012207
860 /file686.txt 200 OK 1722 0.001988
861 /file486.txt 200 OK 1365 0.003156
862 /file129.txt 200 OK 1381 0.001382
863 /file514.txt 200 OK 1476 0.002291
864 /file034.txt 200 OK 1434 0.001515
865 /file002.txt 200 OK 1056 0.002106
866 /file612.txt 200 OK 1188 0.002852
867 /file002.txt 200 OK 1056 0.001803
868 /file006.txt 200 OK 1188 0.001437
869 /file053.txt 200 OK 1046 0.001242
870 /file556.txt 200 OK 1048 0.002671
871 /file057.txt 200 OK 2439 0.001463
872 /file015.txt 200 OK 1337 0.002529
873 /file020.txt 200 OK 1308 0.002397
874 /file641.txt 200 OK 1142 0.004014
875 /file058.txt 200 OK 1087 0.001996
876 /file001.txt 200 OK 1477 0.002190
877 /file651.txt 200 OK 1474 0.002639
878 /file075.txt 200 OK 1128 0.002189
879 /file097.txt 200 OK 1083 0.002297
880 /file060.txt 200 OK 1186 0.001639
881 /file753.txt 200 OK 1069 0.001587
882 /file002.txt 200 OK 1056 0.001862
883 /file003.txt 200 OK 1559 0.002295
884 /file170.txt 200 OK 1169 0.009433
885 /file006.txt 200 OK 1188 0.001954
886 /file306.txt 200 OK 1314 0.012378
887 /file003.txt 200 OK 1559 0.002146
888 /file000.txt 200 OK 1389 0.001360
889 /file001.txt 200 OK 1477 0.000980
890 /file049.txt 200 OK 4445 0.001080
891 /file000.txt 200 OK 1389 0.001313
892 /file000.txt 200 OK 1389 0.002396
893 /file087.txt 200 OK 1136 0.014163
894 /file026.txt 200 OK 1463 0.001865
895 /file001.txt 200 OK 1477 0.001635
896 /file001.txt 200 OK 1477 0.001851
897 /file501.txt 200 OK 1123 0.011453
898 /file003.txt 200 OK 1559 0.001581
899 /file595.txt 200 OK 1895 0.001820
900 /file543.txt 200 OK 1222 0.001420
901 /file000.txt 200 OK 1389 0.001244
902 /file003.txt 200 OK 1559 0.002210
903 /file096.txt 200 OK 2264 0.002167
904 /file637.txt 200 OK 1348 0.001850
905 /file412.txt 200 OK 1039 0.001556
906 /file010.txt 200 OK 1423 0.002346
907 /file066.txt 200 OK 1462 0.001561
908 /file030.txt 200 OK 1582 0.002176
909 /file615.txt 200 OK 1643 0.002215
910 /file986.txt 200 OK 1075 0.013772
911 /file859.txt 200 OK 1067 0.013445
912 /file685.txt 200 OK 1216 0.001129
913 /file742.txt 200 OK 1034 0.002623
914 /file017.txt 200 OK 1781 0.002505
915 /file001.txt 200 OK 1477 0.002039
916 /file000.txt 200 OK 1389 0.002274
917 /file000.txt 200 OK 1389 0.002333
918 /file009.txt 200 OK 1323 0.001785
919 /file003.txt 200 OK 1559 0.002219
920 /file440.txt 200 OK 1038 0.001914
921 /file188.txt 200 OK 2215 0.030816
922 /file388.txt 200 OK 1466 0.001854
923 /file000.txt 200 OK 1389 0.001722
924 /file000.txt 200 OK 1389 0.001501
925 /file001.txt 200 OK 1477 0.001284
926 /file019.txt 200 OK 1089 0.001244
927 /file000.txt 200 OK 1389 0.001144
928 /file060.txt 200 OK 1186 0.001093
929 /file243.txt 200 OK 1093 0.005806
930 /file444.txt 200 OK 1767 0.011025
931 /file060.txt 200 OK 1186 0.008311
932 /file000.txt 200 OK 1389 0.002071
933 /file001.txt 200 OK 1477 0.001600
934 /file013.txt 200 OK 1063 0.001414
935 /file540.txt 200 OK 1308 0.002368
936 /file075.txt 200 OK 1128 0.002311
937 /file128.txt 200 OK 1369 0.001480
938 /file142.txt 200 OK 1358 0.001861
939 /file002.txt 200 OK 1056 0.002262
940 /file023.txt 200 OK 1164 0.002128
941 /file005.txt 200 OK 1231 0.001926
942 /file384.txt 200 OK 1120 0.002330
943 /file456.txt 200 OK 1140 0.002586
944 /file089.txt 200 OK 1059 0.001990
945 /file175.txt 200 OK 2182 0.001486
946 /file002.txt 200 OK 1056 0.001602
947 /file007.txt 200 OK 1138 0.002419
948 /file002.txt 200 OK 1056 0.001752
949 /file146.txt 200 OK 4747 0.013746
950 /file048.txt 200 OK 1438 0.002447
951 /file001.txt 200 OK 1477 0.001193
952 /file026.txt 200 OK 1463 0.001516
953 /file013.txt 200 OK 1063 0.001375
954 /file749.txt 200 OK 1639 0.039413
955 /file033.txt 200 OK 1618 0.019263
956 /file485.txt 200 OK 1309 0.002382
957 /file000.txt 200 OK 1389 0.001870
958 /file127.txt 200 OK 1354 0.002620
959 /file401.txt 200 OK 4036 0.016007
960 /file146.txt 200 OK 4747 0.002298
961 /file005.txt 200 OK 1231 0.001500
962 /file001.txt 200 OK 1477 0.002392
963 /file001.txt 200 OK 1477 0.001432
964 /file066.txt 200 OK 1462 0.001450
965 /file001.txt 200 OK 1477 0.001424
966 /file007.txt 200 OK 1138 0.002561
967 /file006.txt 200 OK 1188 0.001959
968 /file011.txt 200 OK 1129 0.001410
969 /file024.txt 200 OK 1255 0.001270
970 /file015.txt 200 OK 1337 0.001101
971 /file037.txt 200 OK 1351 0.002155
972 /file000.txt 200 OK 1389 0.002218
973 /file002.txt 200 OK 1056 0.001758
974 /file001.txt 200 OK 1477 0.002260
975 /file026.txt 200 OK 1463 0.002194
976 /file684.txt 200 OK 1212 0.036285
977 /file101.txt 200 OK 1350 0.016420
978 /file831.txt 200 OK 1060 0.007163
979 /file006.txt 200 OK 1188 0.001744
980 /file800.txt 200 OK 1090 0.017510
981 /file543.txt 200 OK 1222 0.002004
982 /file008.txt 200 OK 1511 0.001946
983 /file933.txt 200 OK 1715 0.020911
984 /file022.txt 200 OK 1143 0.007650
985 /file409.txt 200 OK 1037 0.013290
986 /file052.txt 200 OK 1203 0.002086
987 /file103.txt 200 OK 3262 0.001611
988 /file013.txt 200 OK 1063 0.001959
989 /file005.txt 200 OK 1231 0.001897
990 /file048.txt 200 OK 1438 0.001571
991 /file000.txt 200 OK 1389 0.001344
992 /file306.txt 200 OK 1314 0.001130
993 /file010.txt 200 OK 1423 0.001411
994 /file027.txt 200 OK 1498 0.002282
995 /file004.txt 200 OK 1153 0.002145
996 /file003.txt 200 OK 1559 0.001649
997 /file000.txt 200 OK 1389 0.001488
998 /file005.txt 610 <class 'httplib.BadStatusLine'>'' 0 0
999 /file000.txt 200 OK 1389 0.002548
1000 /file000.txt 200 OK 1389 0.001808
1001 /file000.txt 200 OK 1389 0.002466
1002 /file089.txt 200 OK 1059 0.001024
1003 /file001.txt 200 OK 1477 0.001923
1004 /file045.txt 200 OK 1253 0.001537
1005 /file025.txt 200 OK 1133 0.002362
1006 /file137.txt 200 OK 1063 0.002175
1007 /file203.txt 200 OK 1310 0.034142
1008 /file091.txt 200 OK 2008 0.031638
1009 /file497.txt 200 OK 1304 0.012483
1010 /file247.txt 200 OK 1093 0.006513
1011 /file003.txt 200 OK 1559 0.001332
1012 /file000.txt 200 OK 1389 0.002073
1013 /file690.txt 200 OK 1534 0.013462
1014 /file000.txt 200 OK 1389 0.001570
1015 /file590.txt 200 OK 1044 0.013707
1016 /file002.txt 200 OK 1056 0.002214
1017 /file960.txt 200 OK 1411 0.001981
1018 /file261.txt 200 OK 1546 0.002007
1019 /file042.txt 200 OK 1047 0.002108
1020 /file011.txt 200 OK 1129 0.001456
1021 /file352.txt 200 OK 1995 0.001358
1022 /file055.txt 200 OK 1900 0.002175
1023 /file020.txt 200 OK 1308 0.001732
1024 /file876.txt 200 OK 1108 0.009854
1025 /file161.txt 200 OK 1227 0.001104
1026 /file007.txt 200 OK 1138 0.001348
1027 /file023.txt 200 OK 1164 0.002338
1028 /file000.txt 200 OK 1389 0.001662
1029 /file010.txt 200 OK 1423 0.002234
1030 /file091.txt 200 OK 2008 0.001958
1031 /file062.txt 200 OK 2496 0.001531
1032 /file067.txt 200 OK 1904 0.001474
1033 /file007.txt 200 OK 1138 0.001211
1034 /file005.txt 200 OK 1231 0.002224
1035 /file002.txt 200 OK 1056 0.001244
1036 /file579.txt 200 OK 1647 0.002139
1037 /file005.txt 200 OK 1231 0.001989
1038 /file232.txt 200 OK 1208 0.005700
1039 /file016.txt 200 OK 1286 0.001662
1040 /file015.txt 200 OK 1337 0.002108
1041 /file240.txt 200 OK 1733 0.002012
1042 /file821.txt 200 OK 1368 0.018030
1043 /file100.txt 200 OK 1851 0.009195
1044 /file004.txt 200 OK 1153 0.002251
1045 /file003.txt 200 OK 1559 0.002201
1046 /file052.txt 200 OK 1203 0.001671
1047 /file007.txt 200 OK 1138 0.002291
1048 /file512.txt 200 OK 1052 0.001866
1049 /file049.txt 200 OK 4445 0.001954
1050 /file000.txt 200 OK 1389 0.001610
1051 /file000.txt 200 OK 1389 0.002344
1052 /file108.txt 200 OK 1260 0.014465
1053 /file074.txt 200 OK 2146 0.001897
1054 /file433.txt 200 OK 1032 0.002788
1055 /file054.txt 200 OK 1104 0.001432
1056 /file001.txt 200 OK 1477 0.002229
1057 /file553.txt 200 OK 1654 0.004405
1058 /file005.txt 200 OK 1231 0.002217
1059 /file035.txt 200 OK 2066 0.002399
1060 /file360.txt 200 OK 1028 0.002305
1061 /file381.txt 200 OK 1481 0.007709
1062 /file076.txt 200 OK 1201 0.002050
1063 /file185.txt 200 OK 2042 0.007231
1064 /file000.txt 200 OK 1389 0.002195
1065 /file185.txt 200 OK 2042 0.001453
1066 /file006.txt 200 OK 1188 0.001404
1067 /file007.txt 200 OK 1138 0.002479
1068 /file020.txt 200 OK 1308 0.001654
1069 /file000.txt 200 OK 1389 0.001570
1070 /file230.txt 200 OK 1260 0.002225
1071 /file000.txt 200 OK 1389 0.002114
1072 /file135.txt 200 OK 1950 0.002028
1073 /file059.txt 200 OK 1134 0.002421
1074 /file018.txt 200 OK 2502 0.001499
1075 /file027.txt 200 OK 1498 0.001597
1076 /file000.txt 200 OK 1389 0.001391
1077 /file004.txt 200 OK 1153 0.001774
1078 /file638.txt 200 OK 1173 0.002009
1079 /file497.txt 200 OK 1304 0.001802
1080 /file002.txt 200 OK 1056 0.001168
1081 /file000.txt 200 OK 1389 0.002310
1082 /file102.txt 200 OK 2006 0.001836
1083 /file003.txt 200 OK 1559 0.001579
1084 /file246.txt 200 OK 1038 0.001624
1085 /file380.txt 200 OK 1445 0.002622
1086 /file210.txt 200 OK 1396 0.002894
1087 /file009.txt 200 OK 1323 0.001605
1088 /file002.txt 200 OK 1056 0.002135
1089 /file202.txt 200 OK 1346 0.001773
1090 /file715.txt 200 OK 1067 0.002218
1091 /file655.txt 200 OK 2032 0.011696
1092 /file052.txt 200 OK 1203 0.001988
1093 /file955.txt 200 OK 1542 0.002493
1094 /file029.txt 200 OK 2454 0.001576
1095 /file072.txt 200 OK 1093 0.001593
1096 /file564.txt 200 OK 1575 0.002829
1097 /file009.txt 200 OK 1323 0.001573
1098 /file112.txt 200 OK 2826 0.001996
1099 /file019.txt 200 OK 1089 0.002221
1100 /file000.txt 200 OK 1389 0.001806
1101 /file001.txt 200 OK 1477 0.002456
1102 /file017.txt 200 OK 1781 0.002380
1103 /file000.txt 200 OK 1389 0.001570
1104 /file623.txt 200 OK 1208 0.025973
1105 /file057.txt 200 OK 2439 0.023254
1106 /file001.txt 200 OK 1477 0.001543
1107 /file000.txt 200 OK 1389 0.001454
1108 /file000.txt 200 OK 1389 0.001210
1109 /file000.txt 200 OK 1389 0.000944
1110 /file007.txt 200 OK 1138 0.001132
1111 /file791.txt 200 OK 1947 0.002538
1112 /file099.txt 200 OK 1230 0.001602
1113 /file004.txt 200 OK 1153 0.004925
1114 /file002.txt 200 OK 1056 0.001735
1115 /file001.txt 200 OK 1477 0.001202
1116 /file130.txt 200 OK 1736 0.001321
1117 /file005.txt 200 OK 1231 0.001262
1118 /file023.txt 200 OK 1164 0.001966
1119 /file036.txt 200 OK 1070 0.002427
1120 /file000.txt 200 OK 1389 0.001688
1121 /file000.txt 200 OK 1389 0.002589
1122 /file034.txt 200 OK 1434 0.001754
1123 /file132.txt 200 OK 2068 0.001362
1124 /file001.txt 200 OK 1477 0.002214
1125 /file794.txt 200 OK 1025 0.001932
1126 /file116.txt 200 OK 1687 0.031641
1127 /file162.txt 200 OK 1137 0.021254
1128 /file003.txt 200 OK 1559 0.009815
1129 /file023.txt 200 OK 1164 0.001156
1130 /file001.txt 200 OK 1477 0.001143
1131 /file703.txt 200 OK 4116 0.015277
1132 /file000.txt 200 OK 1389 0.002023
1133 /file446.txt 200 OK 4451 0.012480
1134 /file033.txt 200 OK 1618 0.006523
1135 /file010.txt 200 OK 1423 0.001819
1136 /file000.txt 200 OK 1389 0.001496
1137 /file042.txt 200 OK 1047 0.001336
1138 /file000.txt 200 OK 1389 0.002111
1139 /file005.txt 200 OK 1231 0.002379
1140 /file000.txt 200 OK 1389 0.001436
1141 /file168.txt 200 OK 1597 0.002811
1142 /file003.txt 200 OK 1559 0.001573
1143 /file295.txt 200 OK 2024 0.047136
1144 /file103.txt 200 OK 3262 0.035163
1145 /file123.txt 200 OK 1493 0.032883
1146 /file974.txt 200 OK 1464 0.019234
1147 /file000.txt 200 OK 1389 0.014258
1148 /file060.txt 200 OK 1186 0.008072
1149 /file005.txt 200 OK 1231 0.002007
1150 /file081.txt 200 OK 1821 0.002030
1151 /file561.txt 200 OK 2114 0.017486
1152 /file000.txt 200 OK 1389 0.001689
1153 /file000.txt 200 OK 1389 0.001613
1154 /file412.txt 200 OK 1039 0.001319
1155 /file009.txt 200 OK 1323 0.001113
1156 /file137.txt 200 OK 1063 0.001330
1157 /file022.txt 200 OK 1143 0.002166
1158 /file001.txt 200 OK 1477 0.002123
1159 /file042.txt 200 OK 1047 0.002409
1160 /file674.txt 200 OK 1384 0.008817
1161 /file030.txt 200 OK 1582 0.006951
1162 /file112.txt 200 OK 2826 0.001517
1163 /file243.txt 200 OK 1093 0.002548
1164 /file005.txt 200 OK 1231 0.001863
1165 /file179.txt 200 OK 1383 0.014328
1166 /file551.txt 200 OK 2394 0.002611
1167 /file195.txt 200 OK 1257 0.001832
1168 /file001.txt 200 OK 1477 0.001447
1169 /file000.txt 200 OK 1389 0.001173
1170 /file932.txt 200 OK 1084 0.001455
1171 /file001.txt 200 OK 1477 0.002400
1172 /file007.txt 200 OK 1138 0.001441
1173 /file007.txt 200 OK 1138 0.003258
1174 /file005.txt 200 OK 1231 0.002323
1175 /file007.txt 200 OK 1138 0.002075
1176 /file100.txt 200 OK 1851 0.002206
1177 /file000.txt 200 OK 1389 0.001591
1178 /file201.txt 200 OK 2038 0.002866
1179 /file038.txt 200 OK 1627 0.001547
1180 /file007.txt 200 OK 1138 0.001406
1181 /file003.txt 200 OK 1559 0.001370
1182 /file097.txt 200 OK 1083 0.001189
1183 /file270.txt 200 OK 1113 0.002128
1184 /file016.txt 200 OK 1286 0.002060
1185 /file006.txt 200 OK 1188 0.002030
1186 /file012.txt 200 OK 1293 0.001642
1187 /file116.txt 200 OK 1687 0.001287
1188 /file017.txt 200 OK 1781 0.000944
1189 /file000.txt 200 OK 1389 0.002058
1190 /file002.txt 200 OK 1056 0.001661
1191 /file001.txt 200 OK 1477 0.001498
1192 /file062.txt 200 OK 2496 0.001609
1193 /file001.txt 200 OK 1477 0.002425
1194 /file269.txt 200 OK 1287 0.004384
1195 /file006.txt 200 OK 1188 0.002257
1196 /file012.txt 200 OK 1293 0.001916
1197 /file124.txt 200 OK 1694 0.002512
1198 /file050.txt 200 OK 1122 0.041044
1199 /file622.txt 200 OK 1589 0.035236
1200 /file000.txt 200 OK 1389 0.014691
1201 /file087.txt 200 OK 1136 0.008244
1202 /file135.txt 200 OK 1950 0.001236
1203 /file004.txt 200 OK 1153 0.002295
1204 /file029.txt 200 OK 2454 0.001889
1205 /file016.txt 200 OK 1286 0.001826
1206 /file003.txt 200 OK 1559 0.001582
1207 /file048.txt 200 OK 1438 0.002320
1208 /file229.txt 200 OK 1216 0.003093
1209 /file016.txt 200 OK 1286 0.001516
1210 /file549.txt 200 OK 1331 0.001910
1211 /file008.txt 200 OK 1511 0.001170
1212 /file002.txt 200 OK 1056 0.000919
1213 /file002.txt 200 OK 1056 0.001971
1214 /file063.txt 200 OK 1254 0.002330
1215 /file043.txt 200 OK 1647 0.001818
1216 /file434.txt 200 OK 1102 0.033798
1219 /file012.txt 200 OK 1293 0.011140
1218 /file003.txt 200 OK 1559 0.024898
1217 /file004.txt 200 OK 1153 0.028746
1220 /file000.txt 200 OK 1389 0.009674
1221 /file000.txt 200 OK 1389 0.000841
1222 /file003.txt 200 OK 1559 0.002028
1223 /file010.txt 200 OK 1423 0.001765
1224 /file006.txt 200 OK 1188 0.001394
1225 /file004.txt 200 OK 1153 0.002123
1226 /file003.txt 200 OK 1559 0.001930
1227 /file001.txt 200 OK 1477 0.001670
1228 /file009.txt 200 OK 1323 0.001511
1229 /file019.txt 200 OK 1089 0.001088
1230 /file003.txt 200 OK 1559 0.002113
1231 /file003.txt 200 OK 1559 0.002491
1232 /file848.txt 200 OK 1052 0.001837
1233 /file005.txt 200 OK 1231 0.001985
1234 /file032.txt 200 OK 1307 0.001576
1235 /file176.txt 200 OK 1158 0.002371
1236 /file905.txt 200 OK 1220 0.027948
1237 /file163.txt 200 OK 1350 0.027032
1238 /file022.txt 200 OK 1143 0.013156
1239 /file000.txt 200 OK 1389 0.001539
1240 /file044.txt 200 OK 1278 0.001448
1241 /file000.txt 200 OK 1389 0.002298
1242 /file007.txt 200 OK 1138 0.002219
1243 /file003.txt 200 OK 1559 0.001364
1244 /file500.txt 200 OK 4654 0.001504
1245 /file048.txt 200 OK 1438 0.001085
1246 /file613.txt 200 OK 1926 0.002530
1247 /file015.txt 200 OK 1337 0.001799
1248 /file065.txt 200 OK 1056 0.002364
1249 /file001.txt 200 OK 1477 0.001583
1250 /file012.txt 200 OK 1293 0.001476
1251 /file001.txt 200 OK 1477 0.002570
1252 /file096.txt 200 OK 2264 0.001527
1253 /file242.txt 200 OK 1250 0.002779
1254 /file023.txt 200 OK 1164 0.001868
1255 /file033.txt 200 OK 1618 0.001205
1256 /file015.txt 200 OK 1337 0.002380
1257 /file387.txt 200 OK 1101 0.002650
1258 /file009.txt 610 <class 'httplib.BadStatusLine'>'' 0 0
1259 /file124.txt 200 OK 1694 0.001569
1260 /file009.txt 200 OK 1323 0.001532
1261 /file040.txt 200 OK 1049 0.001286
1262 /file733.txt 200 OK 1156 0.024577
1263 /file057.txt 200 OK 2439 0.005187
1264 /file000.txt 200 OK 1389 0.003662
1265 /file001.txt 200 OK 1477 0.001945
1266 /file000.txt 200 OK 1389 0.001697
1267 /file001.txt 200 OK 1477 0.001521
1268 /file651.txt 200 OK 1474 0.001273
1269 /file012.txt 200 OK 1293 0.001157
1270 /file000.txt 200 OK 1389 0.001172
1271 /file003.txt 200 OK 1559 0.001361
1272 /file020.txt 200 OK 1308 0.001175
1273 /file050.txt 200 OK 1122 0.001196
1274 /file029.txt 200 OK 2454 0.001048
1275 /file004.txt 200 OK 1153 0.001164
1276 /file627.txt 200 OK 1104 0.004749
1277 /file043.txt 200 OK 1647 0.002124
1278 /file400.txt 200 OK 1024 0.002293
1279 /file018.txt 200 OK 2502 0.001493
1280 /file535.txt 200 OK 1482 0.001691
1281 /file088.txt 200 OK 1135 0.002122
1282 /file055.txt 200 OK 1900 0.001556
1283 /file674.txt 200 OK 1384 0.002249
1284 /file143.txt 200 OK 1483 0.025670
1285 /file001.txt 200 OK 1477 0.024415
1286 /file004.txt 200 OK 1153 0.021378
1287 /file103.txt 200 OK 3262 0.001529
1288 /file371.txt 200 OK 1470 0.020406
1289 /file021.txt 200 OK 1138 0.001620
1290 /file058.txt 200 OK 1087 0.002113
1291 /file409.txt 200 OK 1037 0.001809
1292 /file017.txt 200 OK 1781 0.001192
1293 /file000.txt 200 OK 1389 0.002490
1294 /file018.txt 200 OK 2502 0.001495
1295 /file097.txt 200 OK 1083 0.001471
1296 /file116.txt 200 OK 1687 0.001988
1297 /file688.txt 200 OK 1303 0.011994
1298 /file714.txt 200 OK 1229 0.009109
1299 /file000.txt 200 OK 1389 0.005807
1300 /file002.txt 200 OK 1056 0.001082
1301 /file168.txt 200 OK 1597 0.002131
1302 /file040.txt 200 OK 1049 0.001682
1303 /file072.txt 200 OK 1093 0.001229
1304 /file001.txt 200 OK 1477 0.002327
1305 /file629.txt 200 OK 1097 0.002023
1306 /file039.txt 200 OK 2044 0.002045
1307 /file004.txt 200 OK 1153 0.001901
1308 /file001.txt 200 OK 1477 0.001751
1309 /file048.txt 200 OK 1438 0.002591
1310 /file240.txt 200 OK 1733 0.002079
1311 /file910.txt 200 OK 1194 0.001738
1312 /file003.txt 200 OK 1559 0.001457
1313 /file008.txt 200 OK 1511 0.001081
1314 /file017.txt 200 OK 1781 0.001918
1315 /file433.txt 200 OK 1032 0.002193
1316 /file219.txt 200 OK 2737 0.041703
1318 /file005.txt 200 OK 1231 0.014194
1317 /file004.txt 200 OK 1153 0.042279
1319 /file002.txt 200 OK 1056 0.013850
1320 /file070.txt 200 OK 1332 0.002233
1321 /file001.txt 200 OK 1477 0.001436
1322 /file019.txt 200 OK 1089 0.002190
1323 /file466.txt 200 OK 1363 0.002511
1324 /file064.txt 200 OK 1141 0.002637
1325 /file000.txt 200 OK 1389 0.001580
1326 /file083.txt 200 OK 1945 0.011916
1327 /file122.txt 200 OK 1202 0.007917
1328 /file034.txt 200 OK 1434 0.007542
1329 /file000.txt 200 OK 1389 0.001151
1330 /file182.txt 200 OK 1310 0.001131
1331 /file001.txt 200 OK 1477 0.001854
1332 /file001.txt 200 OK 1477 0.002029
1333 /file053.txt 200 OK 1046 0.002105
1334 /file234.txt 200 OK 1522 0.002953
1335 /file412.txt 200 OK 1039 0.001757
1336 /file005.txt 200 OK 1231 0.002228
1337 /file178.txt 200 OK 1184 0.001757
1338 /file172.txt 200 OK 1225 0.039636
1339 /file357.txt 200 OK 1869 0.015078
1340 /file245.txt 200 OK 2319 0.006856
1341 /file066.txt 200 OK 1462 0.002075
1342 /file005.txt 200 OK 1231 0.002153
1343 /file844.txt 200 OK 1058 0.016744
1344 /file016.txt 200 OK 1286 0.001162
1345 /file000.txt 200 OK 1389 0.002337
1346 /file267.txt 200 OK 2253 0.002255
1347 /file015.txt 200 OK 1337 0.001463
1348 /file013.txt 200 OK 1063 0.002234
1349 /file021.txt 200 OK 1138 0.002212
1350 /file187.txt 200 OK 1724 0.002393
1351 /file718.txt 200 OK 1258 0.016786
1352 /file004.txt 200 OK 1153 0.001965
1353 /file006.txt 200 OK 1188 0.001362
1354 /file204.txt 200 OK 1039 0.002251
1355 /file006.txt 200 OK 1188 0.001625
1356 /file000.txt 200 OK 1389 0.002189
1357 /file002.txt 200 OK 1056 0.001787
1358 /file455.txt 200 OK 1058 0.009921
1359 /file192.txt 200 OK 1732 0.001437
1360 /file008.txt 200 OK 1511 0.001269
1361 /file090.txt 200 OK 1249 0.010889
1362 /file020.txt 200 OK 1308 0.009023
1363 /file000.txt 200 OK 1389 0.003434
1364 /file073.txt 200 OK 1439 0.001270
1365 /file081.txt 200 OK 1821 0.002225
1366 /file000.txt 200 OK 1389 0.002446
1367 /file012.txt 200 OK 1293 0.002106
1368 /file011.txt 200 OK 1129 0.001675
1369 /file947.txt 200 OK 1876 0.002599
1370 /file003.txt 200 OK 1559 0.002082
1371 /file483.txt 200 OK 1215 0.001869
1372 /file021.txt 200 OK 1138 0.001465
1373 /file251.txt 200 OK 9026 0.001335
1374 /file338.txt 200 OK 1873 0.011927
1375 /file120.txt 200 OK 2801 0.004314
1376 /file000.txt 200 OK 1389 0.000892
1377 /file033.txt 200 OK 1618 0.001130
1378 /file024.txt 200 OK 1255 0.002082
1379 /file006.txt 200 OK 1188 0.002115
1380 /file105.txt 200 OK 1244 0.005905
1381 /file000.txt 200 OK 1389 0.001176
1382 /file211.txt 200 OK 1058 0.002839
1383 /file031.txt 200 OK 1533 0.001904
1384 /file004.txt 200 OK 1153 0.001495
1385 /file879.txt 200 OK 1552 0.013353
1386 /file007.txt 200 OK 1138 0.011754
1387 /file000.txt 200 OK 1389 0.000946
1388 /file379.txt 200 OK 1272 0.002135
1389 /file009.txt 200 OK 1323 0.001492
1390 /file000.txt 200 OK 1389 0.002070
1391 /file050.txt 200 OK 1122 0.001413
1392 /file004.txt 200 OK 1153 0.001829
1393 /file013.txt 200 OK 1063 0.001797
1394 /file198.txt 200 OK 1131 0.012181
1395 /file128.txt 200 OK 1369 0.001129
1396 /file429.txt 200 OK 1709 0.012812
1397 /file000.txt 200 OK 1389 0.001866
1398 /file912.txt 200 OK 1067 0.001451
1399 /file442.txt 200 OK 1128 0.002182
1400 /file012.txt 200 OK 1293 0.001903
1401 /file000.txt 200 OK 1389 0.001496
1402 /file070.txt 200 OK 1332 0.002023
1403 /file011.txt 200 OK 1129 0.003560
1404 /file001.txt 200 OK 1477 0.001245
1405 /file460.txt 200 OK 6600 0.003944
1406 /file000.txt 200 OK 1389 0.002391
1407 /file190.txt 200 OK 1063 0.001940
1408 /file002.txt 200 OK 1056 0.001265
1409 /file532.txt 200 OK 1098 0.001526
1410 /file008.txt 200 OK 1511 0.001822
1411 /file003.txt 200 OK 1559 0.001604
1412 /file620.txt 200 OK 1106 0.002251
1413 /file777.txt 200 OK 1523 0.001935
1414 /file360.txt 200 OK 1028 0.001151
1415 /file001.txt 200 OK 1477 0.002438
1416 /file014.txt 200 OK 1113 0.002238
1417 /file016.txt 200 OK 1286 0.001417
1418 /file000.txt 200 OK 1389 0.002391
1419 /file009.txt 200 OK 1323 0.001691
1420 /file008.txt 200 OK 1511 0.001556
1421 /file020.txt 200 OK 1308 0.001214
1422 /file513.txt 200 OK 6666 0.036725
1423 /file092.txt 200 OK 1075 0.043229
1424 /file000.txt 200 OK 1389 0.042271
1425 /file809.txt 200 OK 1393 0.011157
1426 /file012.txt 200 OK 1293 0.005313
1427 /file000.txt 200 OK 1389 0.001094
1428 /file000.txt 200 OK 1389 0.002401
1429 /file508.txt 200 OK 1095 0.002273
1430 /file473.txt 200 OK 1174 0.002170
1431 /file639.txt 200 OK 3368 0.001989
1432 /file066.txt 200 OK 1462 0.001131
1433 /file001.txt 200 OK 1477 0.002302
1434 /file008.txt 200 OK 1511 0.001474
1435 /file001.txt 200 OK 1477 0.001486
1436 /file010.txt 200 OK 1423 0.001558
1437 /file068.txt 200 OK 1727 0.001268
1438 /file019.txt 200 OK 1089 0.001780
1439 /file059.txt 200 OK 1134 0.002054
1440 /file384.txt 200 OK 1120 0.002288
1441 /file616.txt 200 OK 1084 0.012709
1443 /file081.txt 200 OK 1821 0.007643
1442 /file740.txt 200 OK 1107 0.012960
1444 /file013.txt 200 OK 1063 0.005022
1445 /file059.txt 200 OK 1134 0.001332
1446 /file308.txt 200 OK 1240 0.001078
1447 /file086.txt 200 OK 1446 0.002397
1448 /file003.txt 200 OK 1559 0.001800
1449 /file404.txt 200 OK 1039 0.014625
1450 /file070.txt 200 OK 1332 0.001143
1451 /file520.txt 200 OK 1329 0.001451
1452 /file001.txt 200 OK 1477 0.002243
1453 /file019.txt 200 OK 1089 0.002303
1454 /file032.txt 200 OK 1307 0.001980
1455 /file136.txt 200 OK 1307 0.001595
1456 /file001.txt 200 OK 1477 0.001011
1457 /file000.txt 200 OK 1389 0.001275
1458 /file000.txt 200 OK 1389 0.002259
1459 /file000.txt 200 OK 1389 0.001850
1460 /file000.txt 200 OK 1389 0.001498
1461 /file005.txt 200 OK 1231 0.002510
1462 /file498.txt 200 OK 1513 0.001986
1463 /file047.txt 200 OK 1226 0.001590
1464 /file007.txt 200 OK 1138 0.001086
1465 /file021.txt 200 OK 1138 0.002118
1466 /file032.txt 200 OK 1307 0.002283
1467 /file076.txt 200 OK 1201 0.001890
1468 /file003.txt 200 OK 1559 0.001492
1469 /file054.txt 200 OK 1104 0.002165
1470 /file131.txt 200 OK 1118 0.035454
1471 /file007.txt 200 OK 1138 0.001969
1472 /file000.txt 200 OK 1389 0.001460
1473 /file000.txt 200 OK 1389 0.002260
1474 /file017.txt 200 OK 1781 0.002257
1475 /file003.txt 200 OK 1559 0.002211
1476 /file021.txt 200 OK 1138 0.001505
1477 /file008.txt 200 OK 1511 0.001402
1478 /file037.txt 200 OK 1351 0.001016
1479 /file682.txt 200 OK 1057 0.007529
1480 /file991.txt 200 OK 1043 0.006151
1481 /file001.txt 200 OK 1477 0.004389
1482 /file002.txt 200 OK 1056 0.002522
1483 /file106.txt 200 OK 2732 0.001894
1484 /file007.txt 200 OK 1138 0.002494
1485 /file222.txt 200 OK 1430 0.008056
1486 /file000.txt 200 OK 1389 0.003964
1487 /file002.txt 200 OK 1056 0.002301
1488 /file001.txt 200 OK 1477 0.001479
1489 /file106.txt 200 OK 2732 0.002332
1490 /file086.txt 200 OK 1446 0.002211
1491 /file001.txt 200 OK 1477 0.001952
1492 /file444.txt 200 OK 1767 0.001766
1493 /file507.txt 200 OK 1271 0.012278
1494 /file005.txt 200 OK 1231 0.001518
1495 /file049.txt 200 OK 4445 0.001268
1496 /file272.txt 200 OK 2683 0.001422
1497 /file006.txt 200 OK 1188 0.001059
1498 /file398.txt 200 OK 2248 0.014845
1499 /file001.txt 200 OK 1477 0.013325
1500 /file498.txt 200 OK 1513 0.010942
1501 /file000.txt 200 OK 1389 0.001041
1502 /file022.txt 200 OK 1143 0.002106
1503 /file898.txt 200 OK 1141 0.014217
1504 /file093.txt 200 OK 1626 0.002640
1505 /file374.txt 200 OK 1439 0.006840
1506 /file065.txt 200 OK 1056 0.002673
1507 /file304.txt 200 OK 2204 0.001786
1508 /file004.txt 200 OK 1153 0.000971
1509 /file175.txt 200 OK 2182 0.001130
1510 /file002.txt 200 OK 1056 0.001032
1511 /file011.txt 200 OK 1129 0.002432
1512 /file185.txt 200 OK 2042 0.001991
1513 /file054.txt 200 OK 1104 0.001855
