0 /file016.txt 200 OK 1286 0.001457
1 /file109.txt 200 OK 1628 0.001039
2 /file013.txt 200 OK 1063 0.002086
3 /file029.txt 200 OK 2454 0.002222
4 /file016.txt 200 OK 1286 0.001084
5 /file605.txt 200 OK 1410 0.001312
6 /file006.txt 200 OK 1188 0.001154
7 /file175.txt 200 OK 2182 0.002105
8 /file001.txt 200 OK 1477 0.002089
9 /file007.txt 200 OK 1138 0.002049
10 /file759.txt 200 OK 2281 0.001321
11 /file719.txt 200 OK 1497 0.004187
12 /file476.txt 200 OK 1027 0.001351
13 /file001.txt 200 OK 1477 0.002164
14 /file000.txt 200 OK 1389 0.001915
15 /file010.txt 200 OK 1423 0.004850
16 /file038.txt 200 OK 1627 0.001589
17 /file304.txt 200 OK 2204 0.001465
18 /file002.txt 200 OK 1056 0.001027
19 /file065.txt 200 OK 1056 0.002335
20 /file000.txt 200 OK 1389 0.002084
21 /file789.txt 200 OK 2017 0.001346
22 /file120.txt 200 OK 2801 0.001365
23 /file024.txt 200 OK 1255 0.001284
24 /file046.txt 200 OK 2334 0.002166
25 /file006.txt 200 OK 1188 0.001789
26 /file007.txt 200 OK 1138 0.002075
27 /file167.txt 200 OK 8246 0.002200
28 /file440.txt 200 OK 1038 0.002133
29 /file003.txt 200 OK 1559 0.002467
30 /file506.txt 200 OK 1350 0.002063
31 /file174.txt 200 OK 1221 0.002279
32 /file022.txt 200 OK 1143 0.002032
33 /file001.txt 200 OK 1477 0.002164
34 /file353.txt 200 OK 1101 0.001886
35 /file158.txt 200 OK 1134 0.002173
36 /file000.txt 200 OK 1389 0.001840
37 /file047.txt 200 OK 1226 0.002435
38 /file005.txt 200 OK 1231 0.001495
39 /file072.txt 200 OK 1093 0.002206
40 /file038.txt 200 OK 1627 0.002303
41 /file000.txt 200 OK 1389 0.002074
42 /file001.txt 200 OK 1477 0.002110
43 /file122.txt 200 OK 1202 0.001694
44 /file009.txt 200 OK 1323 0.002269
45 /file010.txt 200 OK 1423 0.001843
46 /file057.txt 200 OK 2439 0.002128
47 /file019.txt 200 OK 1089 0.002088
48 /file106.txt 200 OK 2732 0.001964
49 /file221.txt 200 OK 1059 0.001886
50 /file000.txt 200 OK 1389 0.001559
51 /file003.txt 200 OK 1559 0.002205
52 /file001.txt 200 OK 1477 0.001796
53 /file000.txt 200 OK 1389 0.001318
54 /file666.txt 200 OK 4054 0.002225
55 /file031.txt 200 OK 1533 0.001405
56 /file006.txt 200 OK 1188 0.002070
57 /file001.txt 200 OK 1477 0.002223
58 /file003.txt 200 OK 1559 0.002082
59 /file002.txt 200 OK 1056 0.002059
60 /file593.txt 200 OK 4458 0.001720
61 /file865.txt 200 OK 1373 0.001365
62 /file003.txt 200 OK 1559 0.002176
63 /file001.txt 200 OK 1477 0.002108
64 /file009.txt 200 OK 1323 0.002056
65 /file003.txt 200 OK 1559 0.002322
66 /file622.txt 200 OK 1589 0.001667
67 /file036.txt 200 OK 1070 0.002305
68 /file000.txt 200 OK 1389 0.001997
69 /file004.txt 200 OK 1153 0.001509
70 /file060.txt 200 OK 1186 0.001445
71 /file261.txt 200 OK 1546 0.002152
72 /file086.txt 200 OK 1446 0.002106
73 /file130.txt 200 OK 1736 0.001623
74 /file838.txt 200 OK 1422 0.001353
75 /file056.txt 200 OK 1084 0.001370
76 /file224.txt 200 OK 1189 0.000959
77 /file441.txt 200 OK 1225 0.002075
78 /file137.txt 200 OK 1063 0.001948
79 /file024.txt 200 OK 1255 0.001105
80 /file009.txt 200 OK 1323 0.002254
81 /file002.txt 200 OK 1056 0.001792
82 /file307.txt 200 OK 1150 0.001451
83 /file003.txt 200 OK 1559 0.001155
84 /file063.txt 200 OK 1254 0.002236
85 /file044.txt 200 OK 1278 0.002110
86 /file000.txt 200 OK 1389 0.001718
87 /file358.txt 200 OK 1450 0.002053
88 /file002.txt 200 OK 1056 0.001854
89 /file016.txt 200 OK 1286 0.002154
90 /file352.txt 200 OK 1995 0.002358
91 /file000.txt 200 OK 1389 0.002236
92 /file000.txt 200 OK 1389 0.001715
93 /file000.txt 200 OK 1389 0.001476
94 /file060.txt 200 OK 1186 0.001202
95 /file038.txt 200 OK 1627 0.001018
96 /file001.txt 200 OK 1477 0.001035
97 /file044.txt 200 OK 1278 0.002079
98 /file686.txt 200 OK 1722 0.002101
99 /file009.txt 200 OK 1323 0.001735
100 /file000.txt 200 OK 1389 0.001832
101 /file307.txt 200 OK 1150 0.001967
102 /file530.txt 200 OK 2187 0.002064
103 /file527.txt 200 OK 2239 0.001685
104 /file140.txt 200 OK 2657 0.002248
105 /file007.txt 200 OK 1138 0.002327
106 /file000.txt 200 OK 1389 0.002052
107 /file033.txt 200 OK 1618 0.001446
108 /file062.txt 200 OK 2496 0.002175
109 /file019.txt 200 OK 1089 0.001772
110 /file002.txt 200 OK 1056 0.001108
111 /file483.txt 200 OK 1215 0.002137
112 /file045.txt 200 OK 1253 0.001395
113 /file028.txt 200 OK 1892 0.002092
114 /file174.txt 200 OK 1221 0.001451
115 /file000.txt 200 OK 1389 0.002111
116 /file002.txt 200 OK 1056 0.002034
117 /file000.txt 200 OK 1389 0.001900
118 /file406.txt 200 OK 1223 0.002132
119 /file004.txt 200 OK 1153 0.001714
120 /file412.txt 200 OK 1039 0.001372
121 /file609.txt 200 OK 1143 0.002023
122 /file000.txt 200 OK 1389 0.001965
123 /file173.txt 200 OK 1031 0.001540
124 /file615.txt 200 OK 1643 0.002109
125 /file000.txt 200 OK 1389 0.001888
126 /file002.txt 200 OK 1056 0.002154
127 /file081.txt 200 OK 1821 0.001779
128 /file161.txt 200 OK 1227 0.002176
129 /file504.txt 200 OK 1757 0.001589
130 /file145.txt 200 OK 1099 0.001142
131 /file000.txt 200 OK 1389 0.001210
132 /file829.txt 200 OK 1760 0.002085
133 /file022.txt 200 OK 1143 0.002367
134 /file009.txt 200 OK 1323 0.001430
135 /file001.txt 200 OK 1477 0.001919
136 /file002.txt 200 OK 1056 0.001991
137 /file479.txt 200 OK 1337 0.001649
138 /file003.txt 200 OK 1559 0.001285
139 /file003.txt 200 OK 1559 0.002200
140 /file001.txt 200 OK 1477 0.001462
141 /file000.txt 200 OK 1389 0.002082
142 /file001.txt 200 OK 1477 0.002131
143 /file008.txt 200 OK 1511 0.001574
144 /file026.txt 200 OK 1463 0.002179
145 /file000.txt 200 OK 1389 0.002221
146 /file000.txt 200 OK 1389 0.002208
147 /file912.txt 200 OK 1067 0.001978
148 /file007.txt 200 OK 1138 0.002171
149 /file003.txt 200 OK 1559 0.002153
150 /file041.txt 200 OK 1328 0.002163
151 /file004.txt 200 OK 1153 0.001801
152 /file005.txt 200 OK 1231 0.002070
153 /file140.txt 200 OK 2657 0.002175
154 /file183.txt 200 OK 1118 0.002086
155 /file003.txt 200 OK 1559 0.002162
156 /file000.txt 200 OK 1389 0.002119
157 /file000.txt 200 OK 1389 0.002138
158 /file055.txt 200 OK 1900 0.001700
159 /file289.txt 200 OK 1072 0.001367
160 /file676.txt 200 OK 1193 0.001686
161 /file098.txt 200 OK 1459 0.001505
162 /file019.txt 200 OK 1089 0.001398
163 /file441.txt 200 OK 1225 0.002137
164 /file024.txt 200 OK 1255 0.002139
165 /file149.txt 200 OK 1213 0.001800
166 /file854.txt 200 OK 1548 0.002008
167 /file000.txt 200 OK 1389 0.002111
168 /file650.txt 200 OK 1026 0.002028
169 /file153.txt 200 OK 2585 0.002292
170 /file000.txt 200 OK 1389 0.002109
171 /file061.txt 200 OK 1425 0.001947
172 /file019.txt 200 OK 1089 0.002257
173 /file177.txt 200 OK 1613 0.002208
174 /file384.txt 200 OK 1120 0.002033
175 /file093.txt 200 OK 1626 0.001928
176 /file001.txt 200 OK 1477 0.001410
177 /file021.txt 200 OK 1138 0.001965
178 /file062.txt 200 OK 2496 0.001836
179 /file006.txt 200 OK 1188 0.001820
180 /file915.txt 200 OK 2188 0.002208
181 /file010.txt 200 OK 1423 0.002158
182 /file001.txt 200 OK 1477 0.002216
183 /file300.txt 200 OK 1122 0.002205
184 /file150.txt 200 OK 2143 0.001654
185 /file015.txt 200 OK 1337 0.001711
186 /file000.txt 200 OK 1389 0.002141
187 /file015.txt 200 OK 1337 0.001809
188 /file004.txt 200 OK 1153 0.001730
189 /file015.txt 200 OK 1337 0.001665
190 /file028.txt 200 OK 1892 0.001533
191 /file018.txt 200 OK 2502 0.002025
192 /file068.txt 200 OK 1727 0.002172
193 /file000.txt 200 OK 1389 0.001721
194 /file000.txt 200 OK 1389 0.002235
195 /file484.txt 200 OK 1333 0.001996
196 /file726.txt 200 OK 1108 0.001849
197 /file291.txt 200 OK 1042 0.002240
198 /file002.txt 200 OK 1056 0.001757
199 /file001.txt 200 OK 1477 0.002129
200 /file027.txt 200 OK 1498 0.002236
201 /file009.txt 200 OK 1323 0.002306
202 /file088.txt 200 OK 1135 0.002041
203 /file039.txt 200 OK 2044 0.002113
204 /file000.txt 200 OK 1389 0.001788
205 /file000.txt 200 OK 1389 0.002050
206 /file009.txt 200 OK 1323 0.002058
207 /file000.txt 200 OK 1389 0.002433
208 /file003.txt 200 OK 1559 0.001446
209 /file001.txt 200 OK 1477 0.002139
210 /file614.txt 200 OK 1358 0.002108
211 /file008.txt 200 OK 1511 0.002063
212 /file007.txt 200 OK 1138 0.002148
213 /file012.txt 200 OK 1293 0.001849
214 /file009.txt 200 OK 1323 0.001542
215 /file032.txt 200 OK 1307 0.002224
216 /file163.txt 200 OK 1350 0.002258
217 /file085.txt 200 OK 1598 0.002035
218 /file014.txt 200 OK 1113 0.002210
219 /file022.txt 200 OK 1143 0.002014
220 /file007.txt 200 OK 1138 0.002299
221 /file010.txt 200 OK 1423 0.002111
222 /file010.txt 200 OK 1423 0.001379
223 /file001.txt 200 OK 1477 0.002061
224 /file110.txt 200 OK 1391 0.001663
225 /file251.txt 200 OK 9026 0.001137
226 /file156.txt 200 OK 4903 0.001877
227 /file483.txt 200 OK 1215 0.001834
228 /file259.txt 200 OK 1308 0.001989
229 /file007.txt 200 OK 1138 0.002369
230 /file448.txt 200 OK 1381 0.001883
231 /file323.txt 200 OK 2001 0.002114
232 /file040.txt 200 OK 1049 0.002166
233 /file597.txt 200 OK 1386 0.002102
234 /file069.txt 200 OK 1391 0.002166
235 /file003.txt 200 OK 1559 0.001822
236 /file005.txt 200 OK 1231 0.001798
237 /file024.txt 200 OK 1255 0.001535
238 /file002.txt 200 OK 1056 0.001996
239 /file018.txt 200 OK 2502 0.001725
240 /file007.txt 200 OK 1138 0.001727
241 /file063.txt 200 OK 1254 0.001529
242 /file002.txt 200 OK 1056 0.001520
243 /file004.txt 200 OK 1153 0.001881
244 /file004.txt 200 OK 1153 0.002178
245 /file046.txt 200 OK 2334 0.002203
246 /file006.txt 200 OK 1188 0.002260
247 /file058.txt 200 OK 1087 0.002228
248 /file020.txt 200 OK 1308 0.002077
249 /file011.txt 200 OK 1129 0.002125
250 /file113.txt 200 OK 1066 0.001779
251 /file129.txt 200 OK 1381 0.002190
252 /file006.txt 200 OK 1188 0.002061
253 /file978.txt 200 OK 1608 0.002115
254 /file042.txt 200 OK 1047 0.001755
255 /file000.txt 200 OK 1389 0.001138
256 /file017.txt 200 OK 1781 0.002061
257 /file000.txt 200 OK 1389 0.001840
258 /file034.txt 200 OK 1434 0.001448
259 /file066.txt 200 OK 1462 0.002105
260 /file010.txt 200 OK 1423 0.002180
261 /file069.txt 200 OK 1391 0.001809
262 /file042.txt 200 OK 1047 0.003871
263 /file039.txt 200 OK 2044 0.002247
264 /file192.txt 200 OK 1732 0.002217
265 /file000.txt 200 OK 1389 0.001456
266 /file039.txt 200 OK 2044 0.002154
267 /file000.txt 200 OK 1389 0.002079
268 /file032.txt 200 OK 1307 0.002173
269 /file000.txt 200 OK 1389 0.001474
270 /file000.txt 200 OK 1389 0.002224
271 /file217.txt 200 OK 1060 0.002199
272 /file340.txt 200 OK 1262 0.002053
273 /file054.txt 200 OK 1104 0.001922
274 /file154.txt 200 OK 1168 0.001590
275 /file000.txt 200 OK 1389 0.001382
276 /file000.txt 200 OK 1389 0.001068
277 /file739.txt 200 OK 1802 0.001619
278 /file033.txt 200 OK 1618 0.004143
279 /file145.txt 200 OK 1099 0.003573
280 /file000.txt 200 OK 1389 0.001873
281 /file130.txt 200 OK 1736 0.001079
282 /file082.txt 200 OK 2211 0.001040
283 /file002.txt 200 OK 1056 0.002058
284 /file010.txt 200 OK 1423 0.000970
285 /file000.txt 200 OK 1389 0.000779
286 /file009.txt 200 OK 1323 0.005960
287 /file240.txt 200 OK 1733 0.001339
288 /file496.txt 200 OK 1031 0.000910
289 /file005.txt 200 OK 1231 0.001002
290 /file062.txt 200 OK 2496 0.002302
291 /file006.txt 200 OK 1188 0.001903
292 /file277.txt 200 OK 2002 0.001136
293 /file043.txt 200 OK 1647 0.001059
294 /file147.txt 200 OK 2046 0.001686
295 /file000.txt 200 OK 1389 0.001870
296 /file835.txt 200 OK 1092 0.002094
297 /file006.txt 200 OK 1188 0.002363
298 /file006.txt 200 OK 1188 0.001712
299 /file089.txt 200 OK 1059 0.003126
300 /file133.txt 200 OK 1055 0.001312
301 /file005.txt 200 OK 1231 0.001734
302 /file141.txt 200 OK 1218 0.002161
303 /file000.txt 200 OK 1389 0.002194
304 /file034.txt 200 OK 1434 0.002125
305 /file331.txt 200 OK 1183 0.001673
306 /file000.txt 200 OK 1389 0.002121
307 /file118.txt 200 OK 1471 0.001833
308 /file036.txt 200 OK 1070 0.001852
309 /file269.txt 200 OK 1287 0.002020
310 /file134.txt 200 OK 2484 0.002103
311 /file001.txt 200 OK 1477 0.002035
312 /file000.txt 200 OK 1389 0.002171
313 /file039.txt 200 OK 2044 0.002028
314 /file433.txt 200 OK 1032 0.002024
315 /file021.txt 200 OK 1138 0.002357
316 /file308.txt 200 OK 1240 0.001982
317 /file119.txt 200 OK 1294 0.001814
318 /file015.txt 200 OK 1337 0.001390
319 /file767.txt 200 OK 1640 0.002169
320 /file271.txt 200 OK 1136 0.001907
321 /file013.txt 200 OK 1063 0.001112
322 /file013.txt 200 OK 1063 0.001417
323 /file088.txt 200 OK 1135 0.002166
324 /file000.txt 200 OK 1389 0.001438
325 /file001.txt 200 OK 1477 0.001406
326 /file031.txt 200 OK 1533 0.002172
327 /file002.txt 200 OK 1056 0.001994
328 /file027.txt 200 OK 1498 0.002386
329 /file001.txt 200 OK 1477 0.001519
330 /file436.txt 200 OK 1200 0.001170
331 /file026.txt 200 OK 1463 0.001039
332 /file003.txt 200 OK 1559 0.002047
333 /file414.txt 200 OK 1113 0.002212
334 /file000.txt 200 OK 1389 0.001789
335 /file020.txt 200 OK 1308 0.001720
336 /file039.txt 200 OK 2044 0.001661
337 /file079.txt 200 OK 1760 0.001452
338 /file061.txt 200 OK 1425 0.001252
339 /file000.txt 200 OK 1389 0.001999
340 /file307.txt 200 OK 1150 0.001754
341 /file000.txt 200 OK 1389 0.002152
342 /file112.txt 200 OK 2826 0.001857
343 /file321.txt 200 OK 1859 0.002119
344 /file266.txt 200 OK 1795 0.002227
345 /file239.txt 200 OK 1320 0.002008
346 /file067.txt 200 OK 1904 0.002057
347 /file453.txt 200 OK 1353 0.001146
348 /file052.txt 200 OK 1203 0.001404
349 /file095.txt 200 OK 1434 0.002223
350 /file097.txt 200 OK 1083 0.002223
351 /file000.txt 200 OK 1389 0.001891
352 /file233.txt 200 OK 1304 0.001914
353 /file007.txt 200 OK 1138 0.002267
354 /file039.txt 200 OK 2044 0.001657
355 /file010.txt 200 OK 1423 0.002110
356 /file024.txt 200 OK 1255 0.001654
357 /file003.txt 200 OK 1559 0.002178
358 /file440.txt 200 OK 1038 0.002255
359 /file070.txt 200 OK 1332 0.001766
360 /file000.txt 200 OK 1389 0.002280
361 /file001.txt 200 OK 1477 0.002277
362 /file000.txt 200 OK 1389 0.001909
363 /file533.txt 200 OK 1443 0.001400
364 /file095.txt 200 OK 1434 0.002042
365 /file149.txt 200 OK 1213 0.002194
366 /file004.txt 200 OK 1153 0.001962
367 /file000.txt 200 OK 1389 0.000982
368 /file028.txt 200 OK 1892 0.001741
369 /file002.txt 200 OK 1056 0.001838
370 /file001.txt 200 OK 1477 0.001115
371 /file230.txt 200 OK 1260 0.001036
372 /file006.txt 200 OK 1188 0.002301
373 /file001.txt 200 OK 1477 0.000995
374 /file005.txt 200 OK 1231 0.001642
375 /file005.txt 200 OK 1231 0.001370
376 /file015.txt 200 OK 1337 0.002038
377 /file012.txt 200 OK 1293 0.003989
378 /file000.txt 200 OK 1389 0.001026
379 /file290.txt 200 OK 1105 0.001035
380 /file020.txt 200 OK 1308 0.001335
381 /file000.txt 200 OK 1389 0.002020
382 /file579.txt 200 OK 1647 0.002798
383 /file031.txt 200 OK 1533 0.001390
384 /file119.txt 200 OK 1294 0.002096
385 /file144.txt 200 OK 1530 0.001955
386 /file204.txt 200 OK 1039 0.001678
387 /file283.txt 200 OK 1290 0.002618
388 /file000.txt 200 OK 1389 0.001888
389 /file085.txt 200 OK 1598 0.001325
390 /file015.txt 200 OK 1337 0.001663
391 /file422.txt 200 OK 1498 0.001685
392 /file003.txt 200 OK 1559 0.002142
393 /file001.txt 200 OK 1477 0.001520
394 /file044.txt 200 OK 1278 0.002179
395 /file029.txt 200 OK 2454 0.001745
396 /file000.txt 200 OK 1389 0.001788
397 /file001.txt 200 OK 1477 0.002371
398 /file017.txt 200 OK 1781 0.006220
399 /file004.txt 200 OK 1153 0.000951
400 /file000.txt 200 OK 1389 0.009370
401 /file223.txt 200 OK 1970 0.004011
402 /file000.txt 200 OK 1389 0.001727
403 /file051.txt 200 OK 1366 0.001041
404 /file082.txt 200 OK 2211 0.002060
405 /file011.txt 200 OK 1129 0.003582
406 /file000.txt 200 OK 1389 0.001044
407 /file037.txt 200 OK 1351 0.001791
408 /file023.txt 200 OK 1164 0.004646
409 /file000.txt 200 OK 1389 0.001186
410 /file000.txt 200 OK 1389 0.001613
411 /file067.txt 200 OK 1904 0.001086
412 /file001.txt 200 OK 1477 0.001703
413 /file213.txt 200 OK 1029 0.001235
414 /file001.txt 200 OK 1477 0.001067
415 /file043.txt 200 OK 1647 0.001536
416 /file001.txt 200 OK 1477 0.000986
417 /file177.txt 200 OK 1613 0.002422
418 /file004.txt 200 OK 1153 0.001100
419 /file015.txt 200 OK 1337 0.001055
420 /file059.txt 200 OK 1134 0.001054
421 /file002.txt 200 OK 1056 0.000791
422 /file316.txt 200 OK 1629 0.000993
423 /file163.txt 200 OK 1350 0.001019
424 /file047.txt 200 OK 1226 0.001029
425 /file019.txt 200 OK 1089 0.001257
426 /file051.txt 200 OK 1366 0.001656
427 /file254.txt 200 OK 1522 0.001102
428 /file260.txt 200 OK 1352 0.003571
429 /file001.txt 200 OK 1477 0.003005
430 /file001.txt 200 OK 1477 0.001325
431 /file000.txt 200 OK 1389 0.001059
432 /file182.txt 200 OK 1310 0.002802
433 /file162.txt 200 OK 1137 0.001390
434 /file168.txt 200 OK 1597 0.003512
435 /file055.txt 200 OK 1900 0.001687
436 /file077.txt 200 OK 1443 0.001014
437 /file132.txt 200 OK 2068 0.001071
438 /file012.txt 200 OK 1293 0.001002
439 /file007.txt 200 OK 1138 0.001201
440 /file002.txt 200 OK 1056 0.000943
441 /file750.txt 200 OK 1271 0.002837
442 /file000.txt 200 OK 1389 0.001498
443 /file078.txt 200 OK 1296 0.001114
444 /file584.txt 200 OK 1088 0.006134
445 /file137.txt 200 OK 1063 0.002188
446 /file085.txt 200 OK 1598 0.001748
447 /file174.txt 200 OK 1221 0.004240
448 /file073.txt 200 OK 1439 0.000858
449 /file077.txt 200 OK 1443 0.002670
450 /file000.txt 200 OK 1389 0.000985
451 /file003.txt 200 OK 1559 0.001074
452 /file000.txt 200 OK 1389 0.001027
453 /file001.txt 200 OK 1477 0.001700
454 /file112.txt 200 OK 2826 0.002983
455 /file000.txt 200 OK 1389 0.003635
456 /file004.txt 200 OK 1153 0.001955
457 /file025.txt 200 OK 1133 0.001960
458 /file000.txt 200 OK 1389 0.002308
459 /file017.txt 200 OK 1781 0.001683
460 /file037.txt 200 OK 1351 0.002096
461 /file009.txt 200 OK 1323 0.001666
462 /file007.txt 200 OK 1138 0.001503
463 /file038.txt 200 OK 1627 0.001149
464 /file645.txt 200 OK 1316 0.001151
465 /file000.txt 200 OK 1389 0.002616
466 /file139.txt 200 OK 1054 0.001788
467 /file713.txt 200 OK 1470 0.001382
468 /file067.txt 200 OK 1904 0.001179
469 /file042.txt 200 OK 1047 0.001081
470 /file023.txt 200 OK 1164 0.002611
471 /file039.txt 200 OK 2044 0.002022
472 /file003.txt 200 OK 1559 0.001568
473 /file031.txt 200 OK 1533 0.002131
474 /file003.txt 200 OK 1559 0.001430
475 /file000.txt 200 OK 1389 0.001813
476 /file000.txt 200 OK 1389 0.001880
477 /file002.txt 200 OK 1056 0.001672
478 /file411.txt 200 OK 1345 0.001173
479 /file043.txt 200 OK 1647 0.000988
480 /file000.txt 200 OK 1389 0.000979
481 /file777.txt 200 OK 1523 0.001692
482 /file001.txt 200 OK 1477 0.001789
483 /file041.txt 200 OK 1328 0.002032
484 /file151.txt 200 OK 1986 0.003245
485 /file001.txt 200 OK 1477 0.002243
486 /file021.txt 200 OK 1138 0.001775
487 /file250.txt 200 OK 1673 0.001812
488 /file169.txt 200 OK 1136 0.001296
489 /file204.txt 200 OK 1039 0.001916
490 /file021.txt 200 OK 1138 0.002673
491 /file004.txt 200 OK 1153 0.001410
492 /file000.txt 200 OK 1389 0.001155
493 /file020.txt 200 OK 1308 0.001028
494 /file593.txt 200 OK 4458 0.001011
495 /file013.txt 200 OK 1063 0.002333
496 /file096.txt 200 OK 2264 0.001786
497 /file003.txt 200 OK 1559 0.004104
498 /file002.txt 200 OK 1056 0.002659
499 /file000.txt 200 OK 1389 0.000991
500 /file620.txt 200 OK 1106 0.003499
501 /file008.txt 200 OK 1511 0.003428
502 /file003.txt 200 OK 1559 0.001772
503 /file069.txt 200 OK 1391 0.001076
504 /file003.txt 200 OK 1559 0.002181
505 /file052.txt 200 OK 1203 0.001159
506 /file129.txt 200 OK 1381 0.001049
507 /file000.txt 200 OK 1389 0.006447
508 /file009.txt 200 OK 1323 0.003709
509 /file002.txt 200 OK 1056 0.002384
510 /file004.txt 200 OK 1153 0.001658
511 /file626.txt 200 OK 1047 0.002161
512 /file848.txt 200 OK 1052 0.001686
513 /file014.txt 200 OK 1113 0.002169
514 /file062.txt 200 OK 2496 0.001688
515 /file008.txt 200 OK 1511 0.001558
516 /file995.txt 200 OK 1327 0.001657
517 /file150.txt 200 OK 2143 0.001772
518 /file231.txt 200 OK 2537 0.001024
519 /file669.txt 200 OK 1039 0.001825
520 /file070.txt 200 OK 1332 0.002106
521 /file005.txt 200 OK 1231 0.006057
522 /file000.txt 200 OK 1389 0.003235
523 /file214.txt 200 OK 1337 0.001055
524 /file430.txt 200 OK 1143 0.001545
525 /file128.txt 200 OK 1369 0.002124
526 /file241.txt 200 OK 1211 0.001099
527 /file011.txt 200 OK 1129 0.001033
528 /file024.txt 200 OK 1255 0.002124
529 /file865.txt 200 OK 1373 0.001541
530 /file057.txt 200 OK 2439 0.001147
531 /file001.txt 200 OK 1477 0.006734
532 /file735.txt 200 OK 1144 0.002568
533 /file014.txt 200 OK 1113 0.001287
534 /file937.txt 200 OK 1262 0.002005
535 /file088.txt 200 OK 1135 0.001439
536 /file379.txt 200 OK 1272 0.001999
537 /file007.txt 200 OK 1138 0.001755
538 /file001.txt 200 OK 1477 0.001363
539 /file000.txt 200 OK 1389 0.001983
540 /file004.txt 200 OK 1153 0.001059
541 /file001.txt 200 OK 1477 0.001028
542 /file002.txt 200 OK 1056 0.000981
543 /file236.txt 200 OK 1070 0.001047
544 /file004.txt 200 OK 1153 0.001103
545 /file001.txt 200 OK 1477 0.000865
546 /file113.txt 200 OK 1066 0.004336
547 /file028.txt 200 OK 1892 0.001001
548 /file000.txt 200 OK 1389 0.001128
549 /file001.txt 200 OK 1477 0.002109
550 /file466.txt 200 OK 1363 0.002189
551 /file033.txt 200 OK 1618 0.002567
552 /file031.txt 200 OK 1533 0.001649
553 /file178.txt 200 OK 1184 0.001925
554 /file000.txt 200 OK 1389 0.002144
555 /file002.txt 200 OK 1056 0.001415
556 /file004.txt 200 OK 1153 0.001358
557 /file014.txt 200 OK 1113 0.001392
558 /file035.txt 200 OK 2066 0.002082
559 /file003.txt 200 OK 1559 0.001898
560 /file082.txt 200 OK 2211 0.001959
561 /file020.txt 200 OK 1308 0.001915
562 /file066.txt 200 OK 1462 0.002149
563 /file005.txt 200 OK 1231 0.001902
564 /file548.txt 200 OK 1109 0.002229
565 /file012.txt 200 OK 1293 0.002228
566 /file000.txt 200 OK 1389 0.001754
567 /file000.txt 200 OK 1389 0.002290
568 /file031.txt 200 OK 1533 0.002122
569 /file913.txt 200 OK 1068 0.002126
570 /file022.txt 200 OK 1143 0.002252
571 /file001.txt 200 OK 1477 0.002373
572 /file005.txt 200 OK 1231 0.001873
573 /file000.txt 200 OK 1389 0.002138
574 /file003.txt 200 OK 1559 0.001672
575 /file001.txt 200 OK 1477 0.002101
576 /file000.txt 200 OK 1389 0.002093
577 /file008.txt 200 OK 1511 0.001970
578 /file202.txt 200 OK 1346 0.001713
579 /file001.txt 200 OK 1477 0.002206
580 /file000.txt 200 OK 1389 0.002014
581 /file013.txt 200 OK 1063 0.001525
582 /file120.txt 200 OK 2801 0.001900
583 /file023.txt 200 OK 1164 0.002236
584 /file047.txt 200 OK 1226 0.001388
585 /file125.txt 200 OK 1056 0.002391
586 /file004.txt 200 OK 1153 0.001378
587 /file761.txt 200 OK 1139 0.001510
588 /file000.txt 200 OK 1389 0.001302
589 /file217.txt 200 OK 1060 0.002039
590 /file000.txt 200 OK 1389 0.001943
591 /file152.txt 200 OK 1040 0.001887
592 /file136.txt 200 OK 1307 0.001428
593 /file084.txt 200 OK 2230 0.001829
594 /file376.txt 200 OK 1106 0.002164
595 /file001.txt 200 OK 1477 0.002228
596 /file024.txt 200 OK 1255 0.002028
597 /file646.txt 200 OK 1633 0.002620
598 /file370.txt 200 OK 1041 0.002142
599 /file202.txt 200 OK 1346 0.002217
600 /file056.txt 200 OK 1084 0.001980
601 /file138.txt 200 OK 1321 0.001846
602 /file000.txt 200 OK 1389 0.001367
603 /file074.txt 200 OK 2146 0.001208
604 /file000.txt 200 OK 1389 0.002074
605 /file450.txt 200 OK 1488 0.002093
606 /file031.txt 200 OK 1533 0.002355
607 /file436.txt 200 OK 1200 0.001904
608 /file205.txt 200 OK 1047 0.002136
609 /file000.txt 200 OK 1389 0.002003
610 /file154.txt 200 OK 1168 0.002083
611 /file008.txt 200 OK 1511 0.002166
612 /file194.txt 200 OK 1812 0.002168
613 /file038.txt 200 OK 1627 0.002069
614 /file662.txt 200 OK 1305 0.002253
615 /file296.txt 200 OK 1197 0.002078
616 /file130.txt 200 OK 1736 0.001613
617 /file000.txt 200 OK 1389 0.002120
618 /file001.txt 200 OK 1477 0.001993
619 /file152.txt 200 OK 1040 0.001573
620 /file031.txt 200 OK 1533 0.001671
621 /file025.txt 200 OK 1133 0.002179
622 /file126.txt 200 OK 1027 0.001468
623 /file000.txt 200 OK 1389 0.001897
624 /file003.txt 200 OK 1559 0.002292
625 /file017.txt 200 OK 1781 0.002433
626 /file162.txt 200 OK 1137 0.001434
627 /file000.txt 200 OK 1389 0.002101
628 /file006.txt 200 OK 1188 0.002111
629 /file072.txt 200 OK 1093 0.001762
630 /file038.txt 200 OK 1627 0.002126
631 /file086.txt 200 OK 1446 0.001820
632 /file038.txt 200 OK 1627 0.002072
633 /file424.txt 200 OK 1327 0.002125
634 /file773.txt 200 OK 2544 0.001982
635 /file010.txt 200 OK 1423 0.001460
636 /file000.txt 200 OK 1389 0.001814
637 /file000.txt 200 OK 1389 0.002295
638 /file463.txt 200 OK 1519 0.001949
639 /file001.txt 200 OK 1477 0.002012
640 /file006.txt 200 OK 1188 0.001927
641 /file020.txt 200 OK 1308 0.002464
642 /file102.txt 200 OK 2006 0.002365
643 /file006.txt 200 OK 1188 0.002149
644 /file004.txt 200 OK 1153 0.001794
645 /file000.txt 200 OK 1389 0.001637
646 /file002.txt 200 OK 1056 0.001326
647 /file000.txt 200 OK 1389 0.001088
648 /file200.txt 200 OK 2077 0.002083
649 /file008.txt 200 OK 1511 0.001873
650 /file462.txt 200 OK 1611 0.001726
651 /file011.txt 200 OK 1129 0.002149
652 /file118.txt 200 OK 1471 0.001771
653 /file001.txt 200 OK 1477 0.002273
654 /file000.txt 200 OK 1389 0.001560
655 /file972.txt 200 OK 1599 0.002392
656 /file009.txt 200 OK 1323 0.001369
657 /file001.txt 200 OK 1477 0.002011
658 /file010.txt 200 OK 1423 0.002297
659 /file367.txt 200 OK 1117 0.001785
660 /file007.txt 200 OK 1138 0.002304
661 /file027.txt 200 OK 1498 0.001380
662 /file010.txt 200 OK 1423 0.003648
663 /file367.txt 200 OK 1117 0.002035
664 /file000.txt 200 OK 1389 0.002147
665 /file000.txt 200 OK 1389 0.001419
666 /file685.txt 200 OK 1216 0.001326
667 /file012.txt 200 OK 1293 0.000987
668 /file003.txt 200 OK 1559 0.000988
669 /file000.txt 200 OK 1389 0.001045
670 /file218.txt 200 OK 1515 0.001033
671 /file480.txt 200 OK 1266 0.002018
672 /file334.txt 200 OK 1389 0.001916
673 /file004.txt 200 OK 1153 0.001661
674 /file006.txt 200 OK 1188 0.001657
675 /file491.txt 200 OK 1269 0.001839
676 /file399.txt 200 OK 1205 0.002232
677 /file004.txt 200 OK 1153 0.002158
678 /file432.txt 200 OK 1099 0.001785
679 /file081.txt 200 OK 1821 0.001459
680 /file020.txt 200 OK 1308 0.002093
681 /file001.txt 200 OK 1477 0.001864
682 /file009.txt 200 OK 1323 0.001432
683 /file002.txt 200 OK 1056 0.001802
684 /file001.txt 200 OK 1477 0.001968
685 /file006.txt 200 OK 1188 0.002075
686 /file004.txt 200 OK 1153 0.001416
687 /file302.txt 200 OK 1357 0.002174
688 /file168.txt 200 OK 1597 0.001478
689 /file000.txt 200 OK 1389 0.002179
690 /file004.txt 200 OK 1153 0.002239
691 /file009.txt 200 OK 1323 0.002081
692 /file000.txt 200 OK 1389 0.002159
693 /file001.txt 200 OK 1477 0.002196
694 /file340.txt 200 OK 1262 0.001785
695 /file373.txt 200 OK 1807 0.002036
696 /file387.txt 200 OK 1101 0.001711
697 /file001.txt 200 OK 1477 0.001977
698 /file459.txt 200 OK 1104 0.001521
699 /file000.txt 200 OK 1389 0.001459
700 /file072.txt 200 OK 1093 0.001147
701 /file038.txt 200 OK 1627 0.002198
702 /file000.txt 200 OK 1389 0.002425
703 /file000.txt 200 OK 1389 0.001910
704 /file007.txt 200 OK 1138 0.001558
705 /file001.txt 200 OK 1477 0.001145
706 /file036.txt 200 OK 1070 0.002192
707 /file144.txt 200 OK 1530 0.002017
708 /file001.txt 200 OK 1477 0.002024
