0 /file016.txt 200 OK 1286 0.003634
1 /file109.txt 200 OK 1628 0.004107
2 /file013.txt 200 OK 1063 0.002181
3 /file029.txt 200 OK 2454 0.002179
4 /file016.txt 200 OK 1286 0.002124
5 /file605.txt 200 OK 1410 0.002641
6 /file006.txt 200 OK 1188 0.002343
7 /file175.txt 200 OK 2182 0.002024
8 /file001.txt 200 OK 1477 0.002329
9 /file007.txt 200 OK 1138 0.002212
10 /file759.txt 200 OK 2281 0.001889
11 /file719.txt 200 OK 1497 0.002188
12 /file476.txt 200 OK 1027 0.001967
13 /file001.txt 200 OK 1477 0.001366
14 /file000.txt 200 OK 1389 0.001925
15 /file010.txt 200 OK 1423 0.002086
16 /file038.txt 200 OK 1627 0.001872
17 /file304.txt 200 OK 2204 0.002258
18 /file002.txt 200 OK 1056 0.002323
19 /file065.txt 200 OK 1056 0.002181
20 /file000.txt 200 OK 1389 0.001885
21 /file789.txt 200 OK 2017 0.002222
22 /file120.txt 200 OK 2801 0.001905
23 /file024.txt 200 OK 1255 0.002453
24 /file046.txt 200 OK 2334 0.002532
25 /file006.txt 200 OK 1188 0.002010
26 /file007.txt 200 OK 1138 0.002260
27 /file167.txt 200 OK 8246 0.002060
28 /file440.txt 200 OK 1038 0.002305
29 /file003.txt 200 OK 1559 0.002383
